2023-01-18 10:15:01.726 EMeteraiRequestSnProdMain [INFO] 
2023-01-18 10:15:01.729 EMeteraiRequestSnProdMain [INFO] 
2023-01-18 10:15:01.729 EMeteraiRequestSnProdMain [INFO] Application started...
2023-01-18 10:15:01.730 EMeteraiRequestSnProdMain [INFO] loginToPeruri()
2023-01-18 10:15:07.350 ResponseProcessCookies [WARN] Invalid cookie header: "Set-Cookie: ADRUM_BT=R:0|i:36311|g:b504d628-3ae9-45d1-8ca2-ed90c32dc5f6113|e:159|s:f|h:e|n:customer1_af0729ce-99ec-40eb-a09e-0e8d2f0dca0b; Path=/; Expires=Wed, 18 Jan 2023 03:27:53 GMT". Invalid 'expires' attribute: Wed, 18 Jan 2023 03:27:53 GMT
2023-01-18 10:15:07.354 EMeteraiRequestSnProdMain [INFO] {"statusCode":"00","message":"success","token":"eyJhbGciOiJIUzI1NiIsInR5cCI6IkpXVCJ9.eyJlbWFpbCI6InNldHRsZW1lbnRAYmFoYW5hLmNvLmlkIiwic3ViIjoiNjIyMzQ4MmYzYzRmMTMwMDFlODE1OTUzIiwiYXVkIjoiaHR0cHM6Ly9lLW1ldGVyYWkuY28uaWQiLCJpc3MiOiJlbWV0ZXJhaSIsImp0aSI6IjRlODdjYzNkLWFjMDgtNDQ0OC1iM2VlLWZmZDhmYjdkMTRkOCIsImV4cCI6MTY3NDA5ODg0MCwiaWF0IjoxNjc0MDEyNDQwfQ.DCd3G_rdckEInGqCEProIIRYMBA2aLvSQf1nepj6f44","result":{"data":{"login":{"token":"eyJhbGciOiJIUzI1NiIsInR5cCI6IkpXVCJ9.eyJlbWFpbCI6InNldHRsZW1lbnRAYmFoYW5hLmNvLmlkIiwic3ViIjoiNjIyMzQ4MmYzYzRmMTMwMDFlODE1OTUzIiwiYXVkIjoiaHR0cHM6Ly9lLW1ldGVyYWkuY28uaWQiLCJpc3MiOiJlbWV0ZXJhaSIsImp0aSI6IjRlODdjYzNkLWFjMDgtNDQ0OC1iM2VlLWZmZDhmYjdkMTRkOCIsImV4cCI6MTY3NDA5ODg0MCwiaWF0IjoxNjc0MDEyNDQwfQ.DCd3G_rdckEInGqCEProIIRYMBA2aLvSQf1nepj6f44","user":{"id":"6223482f3c4f13001e815953","firstLogin":false,"firstName":"Gatot","lastName":"Soetikno","email":"settlement@bahana.co.id","role":"PEMUNGUTSPV","phoneNumber":"082115237855","userdetails":[{"locations":[{"id":"61611f66f51d250025864724","loccode":"PTPERURIDIGITALSECURITY","tpay":"PREPAID","custID":114,"loctype":{"description":"AD"}}],"locationother":[{"id":"61611f66f51d250025864724","loccode":"PTPERURIDIGITALSECURITY","tpay":"PREPAID","custID":114,"loctype":{"description":"AD"}},{"id":"622348252b660d0024779452","loccode":"PTBahanaSekuritas","tpay":"POSTPAID","custID":285,"loctype":{"description":"PEMUNGUT"}}]}],"accounts":[{"id":"62234826b1de8a0024662255","tipepay":"POSTPAID","tipeacct":"PEMUNGUT","parent":null,"statusreg":"APPROVE","desc":null,"companys":[{"nama":"PT Bahana Sekuritas"}]}]}}}}}
2023-01-18 10:15:07.362 EMeteraiRequestSnProdMain [INFO] gUserId: 6223482f3c4f13001e815953
2023-01-18 10:15:07.363 EMeteraiRequestSnProdMain [INFO] gLocationId: 61611f66f51d250025864724
2023-01-18 10:15:07.363 EMeteraiRequestSnProdMain [INFO] gToken: eyJhbGciOiJIUzI1NiIsInR5cCI6IkpXVCJ9.eyJlbWFpbCI6InNldHRsZW1lbnRAYmFoYW5hLmNvLmlkIiwic3ViIjoiNjIyMzQ4MmYzYzRmMTMwMDFlODE1OTUzIiwiYXVkIjoiaHR0cHM6Ly9lLW1ldGVyYWkuY28uaWQiLCJpc3MiOiJlbWV0ZXJhaSIsImp0aSI6IjRlODdjYzNkLWFjMDgtNDQ0OC1iM2VlLWZmZDhmYjdkMTRkOCIsImV4cCI6MTY3NDA5ODg0MCwiaWF0IjoxNjc0MDEyNDQwfQ.DCd3G_rdckEInGqCEProIIRYMBA2aLvSQf1nepj6f44
2023-01-18 10:15:07.365 EMeteraiRequestSnProdMain [INFO] loginToPeruri takes 5635 msec
2023-01-18 10:15:07.365 EMeteraiRequestSnProdMain [INFO] doCheckDaftarSnNotStamp()
2023-01-18 10:15:07.932 EMeteraiRequestSnProdMain [INFO] getCheckDaftarSnNotStamp()
2023-01-18 10:15:08.167 EMeteraiRequestSnProdMain [INFO] getCheckDaftarSnNotStamp() takes 234 msec
2023-01-18 10:15:08.167 EMeteraiRequestSnProdMain [INFO] doCheckDaftarSnNotStamp() takes 801 msec
2023-01-18 10:15:08.167 EMeteraiRequestSnProdMain [INFO] POST https://backendservice.e-meterai.co.id/function/saldopos HTTP/1.1
2023-01-18 10:15:08.168 EMeteraiRequestSnProdMain [INFO] Content-Type: application/json
2023-01-18 10:15:08.168 EMeteraiRequestSnProdMain [INFO] Authorization: Bearer eyJhbGciOiJIUzI1NiIsInR5cCI6IkpXVCJ9.eyJlbWFpbCI6InNldHRsZW1lbnRAYmFoYW5hLmNvLmlkIiwic3ViIjoiNjIyMzQ4MmYzYzRmMTMwMDFlODE1OTUzIiwiYXVkIjoiaHR0cHM6Ly9lLW1ldGVyYWkuY28uaWQiLCJpc3MiOiJlbWV0ZXJhaSIsImp0aSI6IjRlODdjYzNkLWFjMDgtNDQ0OC1iM2VlLWZmZDhmYjdkMTRkOCIsImV4cCI6MTY3NDA5ODg0MCwiaWF0IjoxNjc0MDEyNDQwfQ.DCd3G_rdckEInGqCEProIIRYMBA2aLvSQf1nepj6f44
2023-01-18 10:15:08.168 EMeteraiRequestSnProdMain [INFO] 
2023-01-18 10:15:08.169 EMeteraiRequestSnProdMain [INFO] 
2023-01-18 10:15:08.326 ResponseProcessCookies [WARN] Invalid cookie header: "Set-Cookie: ADRUM_BT=R:0|i:36306|g:dfa70409-3caf-4ae9-871e-64c3482b26df359|e:0|h:e|n:customer1_af0729ce-99ec-40eb-a09e-0e8d2f0dca0b; Path=/; Expires=Wed, 18 Jan 2023 03:27:54 GMT". Invalid 'expires' attribute: Wed, 18 Jan 2023 03:27:54 GMT
2023-01-18 10:15:08.326 EMeteraiRequestSnProdMain [INFO] Response:
2023-01-18 10:15:08.327 EMeteraiRequestSnProdMain [INFO] {"status":"01","message":"error","result":"Token Expired or Failed"}
2023-01-18 10:15:08.328 EMeteraiRequestSnProdMain [INFO] org.codehaus.jettison.json.JSONException: JSONObject["result"] is not a JSONObject. 
2023-01-18 10:15:08.328 EMeteraiRequestSnProdMain [INFO] g_saldo=0 checkSaldoPos takes 161 msec
2023-01-18 10:15:08.516 EMeteraiRequestSnProdMain [INFO] g_unused=137 getTotalUnusedSn() takes 188msec
2023-01-18 10:15:08.517 EMeteraiRequestSnProdMain [INFO] g_toberequested 0 > g_count 0 set g_toberequested=g_saldo -> 0
2023-01-18 10:15:08.517 EMeteraiRequestSnProdMain [INFO] doCheckDaftarSnNotStamp()
2023-01-18 10:15:08.629 EMeteraiRequestSnProdMain [INFO] getCheckDaftarSnNotStamp()
2023-01-18 10:15:08.699 EMeteraiRequestSnProdMain [INFO] getCheckDaftarSnNotStamp() takes 70 msec
2023-01-18 10:15:08.700 EMeteraiRequestSnProdMain [INFO] doCheckDaftarSnNotStamp() takes 182 msec
2023-01-18 10:15:08.833 EMeteraiRequestSnProdMain [INFO] g_unused=137 getTotalUnusedSn() takes 133msec
2023-01-18 10:15:08.839 EMeteraiRequestSnProdMain [INFO] POST https://backendservice.e-meterai.co.id/function/saldopos HTTP/1.1
2023-01-18 10:15:08.839 EMeteraiRequestSnProdMain [INFO] Content-Type: application/json
2023-01-18 10:15:08.839 EMeteraiRequestSnProdMain [INFO] Authorization: Bearer eyJhbGciOiJIUzI1NiIsInR5cCI6IkpXVCJ9.eyJlbWFpbCI6InNldHRsZW1lbnRAYmFoYW5hLmNvLmlkIiwic3ViIjoiNjIyMzQ4MmYzYzRmMTMwMDFlODE1OTUzIiwiYXVkIjoiaHR0cHM6Ly9lLW1ldGVyYWkuY28uaWQiLCJpc3MiOiJlbWV0ZXJhaSIsImp0aSI6IjRlODdjYzNkLWFjMDgtNDQ0OC1iM2VlLWZmZDhmYjdkMTRkOCIsImV4cCI6MTY3NDA5ODg0MCwiaWF0IjoxNjc0MDEyNDQwfQ.DCd3G_rdckEInGqCEProIIRYMBA2aLvSQf1nepj6f44
2023-01-18 10:15:08.840 EMeteraiRequestSnProdMain [INFO] 
2023-01-18 10:15:08.840 EMeteraiRequestSnProdMain [INFO] 
2023-01-18 10:15:08.981 ResponseProcessCookies [WARN] Invalid cookie header: "Set-Cookie: ADRUM_BT=R:0|i:36306|g:66995c72-47b9-4138-ade7-0b888fc9cea2223|e:948|h:e|n:customer1_af0729ce-99ec-40eb-a09e-0e8d2f0dca0b; Path=/; Expires=Wed, 18 Jan 2023 03:27:55 GMT". Invalid 'expires' attribute: Wed, 18 Jan 2023 03:27:55 GMT
2023-01-18 10:15:08.982 EMeteraiRequestSnProdMain [INFO] Response:
2023-01-18 10:15:08.982 EMeteraiRequestSnProdMain [INFO] {"status":"01","message":"error","result":"Token Expired or Failed"}
2023-01-18 10:15:08.983 EMeteraiRequestSnProdMain [INFO] org.codehaus.jettison.json.JSONException: JSONObject["result"] is not a JSONObject. 
2023-01-18 10:15:08.983 EMeteraiRequestSnProdMain [INFO] g_saldo=0 checkSaldoPos takes 144 msec
2023-01-18 12:15:01.888 EMeteraiRequestSnProdMain [INFO] 
2023-01-18 12:15:01.889 EMeteraiRequestSnProdMain [INFO] 
2023-01-18 12:15:01.889 EMeteraiRequestSnProdMain [INFO] Application started...
2023-01-18 12:15:01.890 EMeteraiRequestSnProdMain [INFO] loginToPeruri()
2023-01-18 12:15:30.292 ResponseProcessCookies [WARN] Invalid cookie header: "Set-Cookie: ADRUM_BT=R:0|i:36311|g:2a8215ac-cc6b-4dcd-8c4e-c1139941f05e874|e:0|s:f|h:e|n:customer1_af0729ce-99ec-40eb-a09e-0e8d2f0dca0b; Path=/; Expires=Wed, 18 Jan 2023 05:28:17 GMT". Invalid 'expires' attribute: Wed, 18 Jan 2023 05:28:17 GMT
2023-01-18 12:15:30.294 EMeteraiRequestSnProdMain [INFO] {"statusCode":"00","message":"success","token":"eyJhbGciOiJIUzI1NiIsInR5cCI6IkpXVCJ9.eyJlbWFpbCI6InNldHRsZW1lbnRAYmFoYW5hLmNvLmlkIiwic3ViIjoiNjIyMzQ4MmYzYzRmMTMwMDFlODE1OTUzIiwiYXVkIjoiaHR0cHM6Ly9lLW1ldGVyYWkuY28uaWQiLCJpc3MiOiJlbWV0ZXJhaSIsImp0aSI6IjRlODdjYzNkLWFjMDgtNDQ0OC1iM2VlLWZmZDhmYjdkMTRkOCIsImV4cCI6MTY3NDA5ODg0MCwiaWF0IjoxNjc0MDEyNDQwfQ.DCd3G_rdckEInGqCEProIIRYMBA2aLvSQf1nepj6f44","result":{"data":{"login":{"token":"eyJhbGciOiJIUzI1NiIsInR5cCI6IkpXVCJ9.eyJlbWFpbCI6InNldHRsZW1lbnRAYmFoYW5hLmNvLmlkIiwic3ViIjoiNjIyMzQ4MmYzYzRmMTMwMDFlODE1OTUzIiwiYXVkIjoiaHR0cHM6Ly9lLW1ldGVyYWkuY28uaWQiLCJpc3MiOiJlbWV0ZXJhaSIsImp0aSI6IjRlODdjYzNkLWFjMDgtNDQ0OC1iM2VlLWZmZDhmYjdkMTRkOCIsImV4cCI6MTY3NDA5ODg0MCwiaWF0IjoxNjc0MDEyNDQwfQ.DCd3G_rdckEInGqCEProIIRYMBA2aLvSQf1nepj6f44","user":{"id":"6223482f3c4f13001e815953","firstLogin":false,"firstName":"Gatot","lastName":"Soetikno","email":"settlement@bahana.co.id","role":"PEMUNGUTSPV","phoneNumber":"082115237855","userdetails":[{"locations":[{"id":"61611f66f51d250025864724","loccode":"PTPERURIDIGITALSECURITY","tpay":"PREPAID","custID":114,"loctype":{"description":"AD"}}],"locationother":[{"id":"61611f66f51d250025864724","loccode":"PTPERURIDIGITALSECURITY","tpay":"PREPAID","custID":114,"loctype":{"description":"AD"}},{"id":"622348252b660d0024779452","loccode":"PTBahanaSekuritas","tpay":"POSTPAID","custID":285,"loctype":{"description":"PEMUNGUT"}}]}],"accounts":[{"id":"62234826b1de8a0024662255","tipepay":"POSTPAID","tipeacct":"PEMUNGUT","parent":null,"statusreg":"APPROVE","desc":null,"companys":[{"nama":"PT Bahana Sekuritas"}]}]}}}}}
2023-01-18 12:15:30.304 EMeteraiRequestSnProdMain [INFO] gUserId: 6223482f3c4f13001e815953
2023-01-18 12:15:30.304 EMeteraiRequestSnProdMain [INFO] gLocationId: 61611f66f51d250025864724
2023-01-18 12:15:30.305 EMeteraiRequestSnProdMain [INFO] gToken: eyJhbGciOiJIUzI1NiIsInR5cCI6IkpXVCJ9.eyJlbWFpbCI6InNldHRsZW1lbnRAYmFoYW5hLmNvLmlkIiwic3ViIjoiNjIyMzQ4MmYzYzRmMTMwMDFlODE1OTUzIiwiYXVkIjoiaHR0cHM6Ly9lLW1ldGVyYWkuY28uaWQiLCJpc3MiOiJlbWV0ZXJhaSIsImp0aSI6IjRlODdjYzNkLWFjMDgtNDQ0OC1iM2VlLWZmZDhmYjdkMTRkOCIsImV4cCI6MTY3NDA5ODg0MCwiaWF0IjoxNjc0MDEyNDQwfQ.DCd3G_rdckEInGqCEProIIRYMBA2aLvSQf1nepj6f44
2023-01-18 12:15:30.306 EMeteraiRequestSnProdMain [INFO] loginToPeruri takes 28416 msec
2023-01-18 12:15:30.307 EMeteraiRequestSnProdMain [INFO] doCheckDaftarSnNotStamp()
2023-01-18 12:15:30.852 EMeteraiRequestSnProdMain [INFO] getCheckDaftarSnNotStamp()
2023-01-18 12:15:31.078 EMeteraiRequestSnProdMain [INFO] getCheckDaftarSnNotStamp() takes 225 msec
2023-01-18 12:15:31.078 EMeteraiRequestSnProdMain [INFO] doCheckDaftarSnNotStamp() takes 771 msec
2023-01-18 12:15:31.079 EMeteraiRequestSnProdMain [INFO] POST https://backendservice.e-meterai.co.id/function/saldopos HTTP/1.1
2023-01-18 12:15:31.079 EMeteraiRequestSnProdMain [INFO] Content-Type: application/json
2023-01-18 12:15:31.080 EMeteraiRequestSnProdMain [INFO] Authorization: Bearer eyJhbGciOiJIUzI1NiIsInR5cCI6IkpXVCJ9.eyJlbWFpbCI6InNldHRsZW1lbnRAYmFoYW5hLmNvLmlkIiwic3ViIjoiNjIyMzQ4MmYzYzRmMTMwMDFlODE1OTUzIiwiYXVkIjoiaHR0cHM6Ly9lLW1ldGVyYWkuY28uaWQiLCJpc3MiOiJlbWV0ZXJhaSIsImp0aSI6IjRlODdjYzNkLWFjMDgtNDQ0OC1iM2VlLWZmZDhmYjdkMTRkOCIsImV4cCI6MTY3NDA5ODg0MCwiaWF0IjoxNjc0MDEyNDQwfQ.DCd3G_rdckEInGqCEProIIRYMBA2aLvSQf1nepj6f44
2023-01-18 12:15:31.080 EMeteraiRequestSnProdMain [INFO] 
2023-01-18 12:15:31.081 EMeteraiRequestSnProdMain [INFO] 
2023-01-18 12:15:31.318 ResponseProcessCookies [WARN] Invalid cookie header: "Set-Cookie: ADRUM_BT=R:0|i:36306|g:b94a1312-4a89-41aa-aef4-2ecc52d938ce140|e:0|s:f|h:e|n:customer1_af0729ce-99ec-40eb-a09e-0e8d2f0dca0b; Path=/; Expires=Wed, 18 Jan 2023 05:28:18 GMT". Invalid 'expires' attribute: Wed, 18 Jan 2023 05:28:18 GMT
2023-01-18 12:15:31.319 EMeteraiRequestSnProdMain [INFO] Response:
2023-01-18 12:15:31.320 EMeteraiRequestSnProdMain [INFO] {"status":"01","message":"error","result":"Token Expired or Failed"}
2023-01-18 12:15:31.321 EMeteraiRequestSnProdMain [INFO] org.codehaus.jettison.json.JSONException: JSONObject["result"] is not a JSONObject. 
2023-01-18 12:15:31.321 EMeteraiRequestSnProdMain [INFO] g_saldo=0 checkSaldoPos takes 242 msec
2023-01-18 12:15:31.465 EMeteraiRequestSnProdMain [INFO] g_unused=137 getTotalUnusedSn() takes 144msec
2023-01-18 12:15:31.465 EMeteraiRequestSnProdMain [INFO] g_toberequested 0 > g_count 0 set g_toberequested=g_saldo -> 0
2023-01-18 12:15:31.465 EMeteraiRequestSnProdMain [INFO] doCheckDaftarSnNotStamp()
2023-01-18 12:15:31.551 EMeteraiRequestSnProdMain [INFO] getCheckDaftarSnNotStamp()
2023-01-18 12:15:31.612 EMeteraiRequestSnProdMain [INFO] getCheckDaftarSnNotStamp() takes 61 msec
2023-01-18 12:15:31.612 EMeteraiRequestSnProdMain [INFO] doCheckDaftarSnNotStamp() takes 147 msec
2023-01-18 12:15:31.777 EMeteraiRequestSnProdMain [INFO] g_unused=137 getTotalUnusedSn() takes 164msec
2023-01-18 12:15:31.783 EMeteraiRequestSnProdMain [INFO] POST https://backendservice.e-meterai.co.id/function/saldopos HTTP/1.1
2023-01-18 12:15:31.784 EMeteraiRequestSnProdMain [INFO] Content-Type: application/json
2023-01-18 12:15:31.784 EMeteraiRequestSnProdMain [INFO] Authorization: Bearer eyJhbGciOiJIUzI1NiIsInR5cCI6IkpXVCJ9.eyJlbWFpbCI6InNldHRsZW1lbnRAYmFoYW5hLmNvLmlkIiwic3ViIjoiNjIyMzQ4MmYzYzRmMTMwMDFlODE1OTUzIiwiYXVkIjoiaHR0cHM6Ly9lLW1ldGVyYWkuY28uaWQiLCJpc3MiOiJlbWV0ZXJhaSIsImp0aSI6IjRlODdjYzNkLWFjMDgtNDQ0OC1iM2VlLWZmZDhmYjdkMTRkOCIsImV4cCI6MTY3NDA5ODg0MCwiaWF0IjoxNjc0MDEyNDQwfQ.DCd3G_rdckEInGqCEProIIRYMBA2aLvSQf1nepj6f44
2023-01-18 12:15:31.784 EMeteraiRequestSnProdMain [INFO] 
2023-01-18 12:15:31.784 EMeteraiRequestSnProdMain [INFO] 
2023-01-18 12:15:32.180 ResponseProcessCookies [WARN] Invalid cookie header: "Set-Cookie: ADRUM_BT=R:0|i:36306|g:ac19387f-2269-4695-bb15-206f94c43b712411|e:0|s:f|h:e|n:customer1_af0729ce-99ec-40eb-a09e-0e8d2f0dca0b; Path=/; Expires=Wed, 18 Jan 2023 05:28:19 GMT". Invalid 'expires' attribute: Wed, 18 Jan 2023 05:28:19 GMT
2023-01-18 12:15:32.181 EMeteraiRequestSnProdMain [INFO] Response:
2023-01-18 12:15:32.181 EMeteraiRequestSnProdMain [INFO] {"status":"01","message":"error","result":"Token Expired or Failed"}
2023-01-18 12:15:32.182 EMeteraiRequestSnProdMain [INFO] org.codehaus.jettison.json.JSONException: JSONObject["result"] is not a JSONObject. 
2023-01-18 12:15:32.183 EMeteraiRequestSnProdMain [INFO] g_saldo=0 checkSaldoPos takes 400 msec
2023-01-18 13:56:27.087 EMeteraiRequestSnProdMain [INFO] 
2023-01-18 13:56:27.089 EMeteraiRequestSnProdMain [INFO] 
2023-01-18 13:56:27.089 EMeteraiRequestSnProdMain [INFO] Application started...
2023-01-18 13:56:27.097 EMeteraiRequestSnProdMain [INFO] loginToPeruri()
2023-01-18 13:56:35.374 ResponseProcessCookies [WARN] Invalid cookie header: "Set-Cookie: ADRUM_BT=R:0|i:36311|g:6b70e039-580f-413b-a650-e55bb20a2070276|e:30|s:f|h:e|n:customer1_af0729ce-99ec-40eb-a09e-0e8d2f0dca0b; Path=/; Expires=Wed, 18 Jan 2023 07:09:22 GMT". Invalid 'expires' attribute: Wed, 18 Jan 2023 07:09:22 GMT
2023-01-18 13:56:35.377 EMeteraiRequestSnProdMain [INFO] {"statusCode":"00","message":"success","token":"eyJhbGciOiJIUzI1NiIsInR5cCI6IkpXVCJ9.eyJlbWFpbCI6InNldHRsZW1lbnRAYmFoYW5hLmNvLmlkIiwic3ViIjoiNjIyMzQ4MmYzYzRmMTMwMDFlODE1OTUzIiwiYXVkIjoiaHR0cHM6Ly9lLW1ldGVyYWkuY28uaWQiLCJpc3MiOiJlbWV0ZXJhaSIsImp0aSI6IjRlODdjYzNkLWFjMDgtNDQ0OC1iM2VlLWZmZDhmYjdkMTRkOCIsImV4cCI6MTY3NDA5ODg0MCwiaWF0IjoxNjc0MDEyNDQwfQ.DCd3G_rdckEInGqCEProIIRYMBA2aLvSQf1nepj6f44","result":{"data":{"login":{"token":"eyJhbGciOiJIUzI1NiIsInR5cCI6IkpXVCJ9.eyJlbWFpbCI6InNldHRsZW1lbnRAYmFoYW5hLmNvLmlkIiwic3ViIjoiNjIyMzQ4MmYzYzRmMTMwMDFlODE1OTUzIiwiYXVkIjoiaHR0cHM6Ly9lLW1ldGVyYWkuY28uaWQiLCJpc3MiOiJlbWV0ZXJhaSIsImp0aSI6IjRlODdjYzNkLWFjMDgtNDQ0OC1iM2VlLWZmZDhmYjdkMTRkOCIsImV4cCI6MTY3NDA5ODg0MCwiaWF0IjoxNjc0MDEyNDQwfQ.DCd3G_rdckEInGqCEProIIRYMBA2aLvSQf1nepj6f44","user":{"id":"6223482f3c4f13001e815953","firstLogin":false,"firstName":"Gatot","lastName":"Soetikno","email":"settlement@bahana.co.id","role":"PEMUNGUTSPV","phoneNumber":"082115237855","userdetails":[{"locations":[{"id":"61611f66f51d250025864724","loccode":"PTPERURIDIGITALSECURITY","tpay":"PREPAID","custID":114,"loctype":{"description":"AD"}}],"locationother":[{"id":"61611f66f51d250025864724","loccode":"PTPERURIDIGITALSECURITY","tpay":"PREPAID","custID":114,"loctype":{"description":"AD"}},{"id":"622348252b660d0024779452","loccode":"PTBahanaSekuritas","tpay":"POSTPAID","custID":285,"loctype":{"description":"PEMUNGUT"}}]}],"accounts":[{"id":"62234826b1de8a0024662255","tipepay":"POSTPAID","tipeacct":"PEMUNGUT","parent":null,"statusreg":"APPROVE","desc":null,"companys":[{"nama":"PT Bahana Sekuritas"}]}]}}}}}
2023-01-18 13:56:35.386 EMeteraiRequestSnProdMain [INFO] gUserId: 6223482f3c4f13001e815953
2023-01-18 13:56:35.386 EMeteraiRequestSnProdMain [INFO] gLocationId: 61611f66f51d250025864724
2023-01-18 13:56:35.387 EMeteraiRequestSnProdMain [INFO] gToken: eyJhbGciOiJIUzI1NiIsInR5cCI6IkpXVCJ9.eyJlbWFpbCI6InNldHRsZW1lbnRAYmFoYW5hLmNvLmlkIiwic3ViIjoiNjIyMzQ4MmYzYzRmMTMwMDFlODE1OTUzIiwiYXVkIjoiaHR0cHM6Ly9lLW1ldGVyYWkuY28uaWQiLCJpc3MiOiJlbWV0ZXJhaSIsImp0aSI6IjRlODdjYzNkLWFjMDgtNDQ0OC1iM2VlLWZmZDhmYjdkMTRkOCIsImV4cCI6MTY3NDA5ODg0MCwiaWF0IjoxNjc0MDEyNDQwfQ.DCd3G_rdckEInGqCEProIIRYMBA2aLvSQf1nepj6f44
2023-01-18 13:56:35.389 EMeteraiRequestSnProdMain [INFO] loginToPeruri takes 8291 msec
2023-01-18 13:59:11.653 EMeteraiRequestSnProdMain [INFO] 
2023-01-18 13:59:11.654 EMeteraiRequestSnProdMain [INFO] 
2023-01-18 13:59:11.655 EMeteraiRequestSnProdMain [INFO] Application started...
2023-01-18 13:59:11.656 EMeteraiRequestSnProdMain [INFO] loginToPeruri()
2023-01-18 13:59:13.083 ResponseProcessCookies [WARN] Invalid cookie header: "Set-Cookie: ADRUM_BT=R:0|i:36311|g:43964482-45d5-4a94-9873-7e18bcdbedbd424|e:625|h:e|n:customer1_af0729ce-99ec-40eb-a09e-0e8d2f0dca0b; Path=/; Expires=Wed, 18 Jan 2023 07:12:00 GMT". Invalid 'expires' attribute: Wed, 18 Jan 2023 07:12:00 GMT
2023-01-18 13:59:13.085 EMeteraiRequestSnProdMain [INFO] {"statusCode":"00","message":"success","token":"eyJhbGciOiJIUzI1NiIsInR5cCI6IkpXVCJ9.eyJlbWFpbCI6InNldHRsZW1lbnRAYmFoYW5hLmNvLmlkIiwic3ViIjoiNjIyMzQ4MmYzYzRmMTMwMDFlODE1OTUzIiwiYXVkIjoiaHR0cHM6Ly9lLW1ldGVyYWkuY28uaWQiLCJpc3MiOiJlbWV0ZXJhaSIsImp0aSI6IjRlODdjYzNkLWFjMDgtNDQ0OC1iM2VlLWZmZDhmYjdkMTRkOCIsImV4cCI6MTY3NDA5ODg0MCwiaWF0IjoxNjc0MDEyNDQwfQ.DCd3G_rdckEInGqCEProIIRYMBA2aLvSQf1nepj6f44","result":{"data":{"login":{"token":"eyJhbGciOiJIUzI1NiIsInR5cCI6IkpXVCJ9.eyJlbWFpbCI6InNldHRsZW1lbnRAYmFoYW5hLmNvLmlkIiwic3ViIjoiNjIyMzQ4MmYzYzRmMTMwMDFlODE1OTUzIiwiYXVkIjoiaHR0cHM6Ly9lLW1ldGVyYWkuY28uaWQiLCJpc3MiOiJlbWV0ZXJhaSIsImp0aSI6IjRlODdjYzNkLWFjMDgtNDQ0OC1iM2VlLWZmZDhmYjdkMTRkOCIsImV4cCI6MTY3NDA5ODg0MCwiaWF0IjoxNjc0MDEyNDQwfQ.DCd3G_rdckEInGqCEProIIRYMBA2aLvSQf1nepj6f44","user":{"id":"6223482f3c4f13001e815953","firstLogin":false,"firstName":"Gatot","lastName":"Soetikno","email":"settlement@bahana.co.id","role":"PEMUNGUTSPV","phoneNumber":"082115237855","userdetails":[{"locations":[{"id":"61611f66f51d250025864724","loccode":"PTPERURIDIGITALSECURITY","tpay":"PREPAID","custID":114,"loctype":{"description":"AD"}}],"locationother":[{"id":"61611f66f51d250025864724","loccode":"PTPERURIDIGITALSECURITY","tpay":"PREPAID","custID":114,"loctype":{"description":"AD"}},{"id":"622348252b660d0024779452","loccode":"PTBahanaSekuritas","tpay":"POSTPAID","custID":285,"loctype":{"description":"PEMUNGUT"}}]}],"accounts":[{"id":"62234826b1de8a0024662255","tipepay":"POSTPAID","tipeacct":"PEMUNGUT","parent":null,"statusreg":"APPROVE","desc":null,"companys":[{"nama":"PT Bahana Sekuritas"}]}]}}}}}
2023-01-18 13:59:13.094 EMeteraiRequestSnProdMain [INFO] gUserId: 6223482f3c4f13001e815953
2023-01-18 13:59:13.094 EMeteraiRequestSnProdMain [INFO] gLocationId: 61611f66f51d250025864724
2023-01-18 13:59:13.094 EMeteraiRequestSnProdMain [INFO] gToken: eyJhbGciOiJIUzI1NiIsInR5cCI6IkpXVCJ9.eyJlbWFpbCI6InNldHRsZW1lbnRAYmFoYW5hLmNvLmlkIiwic3ViIjoiNjIyMzQ4MmYzYzRmMTMwMDFlODE1OTUzIiwiYXVkIjoiaHR0cHM6Ly9lLW1ldGVyYWkuY28uaWQiLCJpc3MiOiJlbWV0ZXJhaSIsImp0aSI6IjRlODdjYzNkLWFjMDgtNDQ0OC1iM2VlLWZmZDhmYjdkMTRkOCIsImV4cCI6MTY3NDA5ODg0MCwiaWF0IjoxNjc0MDEyNDQwfQ.DCd3G_rdckEInGqCEProIIRYMBA2aLvSQf1nepj6f44
2023-01-18 13:59:13.096 EMeteraiRequestSnProdMain [INFO] loginToPeruri takes 1439 msec
2023-01-18 13:59:13.096 EMeteraiRequestSnProdMain [INFO] doCheckDaftarSnNotStamp()
2023-01-18 13:59:13.639 EMeteraiRequestSnProdMain [INFO] getCheckDaftarSnNotStamp()
2023-01-18 13:59:13.838 EMeteraiRequestSnProdMain [INFO] getCheckDaftarSnNotStamp() takes 198 msec
2023-01-18 13:59:13.838 EMeteraiRequestSnProdMain [INFO] doCheckDaftarSnNotStamp() takes 742 msec
2023-01-18 13:59:13.995 EMeteraiRequestSnProdMain [INFO] g_unused=137 getTotalUnusedSn() takes 157msec
2023-01-18 13:59:13.995 EMeteraiRequestSnProdMain [INFO] g_toberequested=863
2023-01-18 13:59:13.995 EMeteraiRequestSnProdMain [INFO] 0--->
2023-01-18 13:59:14.103 EMeteraiRequestSnProdMain [INFO] message: error err: Token Expired or Failed, try relogin!
2023-01-18 13:59:14.104 EMeteraiRequestSnProdMain [INFO] loginToPeruri()
2023-01-18 13:59:15.925 ResponseProcessCookies [WARN] Invalid cookie header: "Set-Cookie: ADRUM_BT=R:0|i:36311|g:72f4cfa0-148b-4f3d-ba4f-ea06df8a939a198|e:0|s:f|h:e|n:customer1_af0729ce-99ec-40eb-a09e-0e8d2f0dca0b; Path=/; Expires=Wed, 18 Jan 2023 07:12:03 GMT". Invalid 'expires' attribute: Wed, 18 Jan 2023 07:12:03 GMT
2023-01-18 13:59:15.926 EMeteraiRequestSnProdMain [INFO] {"statusCode":"00","message":"success","token":"eyJhbGciOiJIUzI1NiIsInR5cCI6IkpXVCJ9.eyJlbWFpbCI6InNldHRsZW1lbnRAYmFoYW5hLmNvLmlkIiwic3ViIjoiNjIyMzQ4MmYzYzRmMTMwMDFlODE1OTUzIiwiYXVkIjoiaHR0cHM6Ly9lLW1ldGVyYWkuY28uaWQiLCJpc3MiOiJlbWV0ZXJhaSIsImp0aSI6IjRlODdjYzNkLWFjMDgtNDQ0OC1iM2VlLWZmZDhmYjdkMTRkOCIsImV4cCI6MTY3NDA5ODg0MCwiaWF0IjoxNjc0MDEyNDQwfQ.DCd3G_rdckEInGqCEProIIRYMBA2aLvSQf1nepj6f44","result":{"data":{"login":{"token":"eyJhbGciOiJIUzI1NiIsInR5cCI6IkpXVCJ9.eyJlbWFpbCI6InNldHRsZW1lbnRAYmFoYW5hLmNvLmlkIiwic3ViIjoiNjIyMzQ4MmYzYzRmMTMwMDFlODE1OTUzIiwiYXVkIjoiaHR0cHM6Ly9lLW1ldGVyYWkuY28uaWQiLCJpc3MiOiJlbWV0ZXJhaSIsImp0aSI6IjRlODdjYzNkLWFjMDgtNDQ0OC1iM2VlLWZmZDhmYjdkMTRkOCIsImV4cCI6MTY3NDA5ODg0MCwiaWF0IjoxNjc0MDEyNDQwfQ.DCd3G_rdckEInGqCEProIIRYMBA2aLvSQf1nepj6f44","user":{"id":"6223482f3c4f13001e815953","firstLogin":false,"firstName":"Gatot","lastName":"Soetikno","email":"settlement@bahana.co.id","role":"PEMUNGUTSPV","phoneNumber":"082115237855","userdetails":[{"locations":[{"id":"61611f66f51d250025864724","loccode":"PTPERURIDIGITALSECURITY","tpay":"PREPAID","custID":114,"loctype":{"description":"AD"}}],"locationother":[{"id":"61611f66f51d250025864724","loccode":"PTPERURIDIGITALSECURITY","tpay":"PREPAID","custID":114,"loctype":{"description":"AD"}},{"id":"622348252b660d0024779452","loccode":"PTBahanaSekuritas","tpay":"POSTPAID","custID":285,"loctype":{"description":"PEMUNGUT"}}]}],"accounts":[{"id":"62234826b1de8a0024662255","tipepay":"POSTPAID","tipeacct":"PEMUNGUT","parent":null,"statusreg":"APPROVE","desc":null,"companys":[{"nama":"PT Bahana Sekuritas"}]}]}}}}}
2023-01-18 13:59:15.929 EMeteraiRequestSnProdMain [INFO] gUserId: 6223482f3c4f13001e815953
2023-01-18 13:59:15.929 EMeteraiRequestSnProdMain [INFO] gLocationId: 61611f66f51d250025864724
2023-01-18 13:59:15.930 EMeteraiRequestSnProdMain [INFO] gToken: eyJhbGciOiJIUzI1NiIsInR5cCI6IkpXVCJ9.eyJlbWFpbCI6InNldHRsZW1lbnRAYmFoYW5hLmNvLmlkIiwic3ViIjoiNjIyMzQ4MmYzYzRmMTMwMDFlODE1OTUzIiwiYXVkIjoiaHR0cHM6Ly9lLW1ldGVyYWkuY28uaWQiLCJpc3MiOiJlbWV0ZXJhaSIsImp0aSI6IjRlODdjYzNkLWFjMDgtNDQ0OC1iM2VlLWZmZDhmYjdkMTRkOCIsImV4cCI6MTY3NDA5ODg0MCwiaWF0IjoxNjc0MDEyNDQwfQ.DCd3G_rdckEInGqCEProIIRYMBA2aLvSQf1nepj6f44
2023-01-18 13:59:15.931 EMeteraiRequestSnProdMain [INFO] loginToPeruri takes 1827 msec
2023-01-18 13:59:15.941 EMeteraiRequestSnProdMain [INFO] generateSerialNumberReloginNotStamp takes 1945 msec
2023-01-18 13:59:15.941 EMeteraiRequestSnProdMain [INFO] 1--->
2023-01-18 13:59:16.007 EMeteraiRequestSnProdMain [INFO] message: error err: Token Expired or Failed, try relogin!
2023-01-18 13:59:16.007 EMeteraiRequestSnProdMain [INFO] loginToPeruri()
2023-01-18 13:59:16.264 ResponseProcessCookies [WARN] Invalid cookie header: "Set-Cookie: ADRUM_BT=R:0|i:36311|g:9f11aecf-52ce-45bf-ba6d-64c34beb697e3554|e:0|h:e|n:customer1_af0729ce-99ec-40eb-a09e-0e8d2f0dca0b; Path=/; Expires=Wed, 18 Jan 2023 07:12:03 GMT". Invalid 'expires' attribute: Wed, 18 Jan 2023 07:12:03 GMT
2023-01-18 13:59:16.265 EMeteraiRequestSnProdMain [INFO] {"statusCode":"00","message":"success","token":"eyJhbGciOiJIUzI1NiIsInR5cCI6IkpXVCJ9.eyJlbWFpbCI6InNldHRsZW1lbnRAYmFoYW5hLmNvLmlkIiwic3ViIjoiNjIyMzQ4MmYzYzRmMTMwMDFlODE1OTUzIiwiYXVkIjoiaHR0cHM6Ly9lLW1ldGVyYWkuY28uaWQiLCJpc3MiOiJlbWV0ZXJhaSIsImp0aSI6IjRlODdjYzNkLWFjMDgtNDQ0OC1iM2VlLWZmZDhmYjdkMTRkOCIsImV4cCI6MTY3NDA5ODg0MCwiaWF0IjoxNjc0MDEyNDQwfQ.DCd3G_rdckEInGqCEProIIRYMBA2aLvSQf1nepj6f44","result":{"data":{"login":{"token":"eyJhbGciOiJIUzI1NiIsInR5cCI6IkpXVCJ9.eyJlbWFpbCI6InNldHRsZW1lbnRAYmFoYW5hLmNvLmlkIiwic3ViIjoiNjIyMzQ4MmYzYzRmMTMwMDFlODE1OTUzIiwiYXVkIjoiaHR0cHM6Ly9lLW1ldGVyYWkuY28uaWQiLCJpc3MiOiJlbWV0ZXJhaSIsImp0aSI6IjRlODdjYzNkLWFjMDgtNDQ0OC1iM2VlLWZmZDhmYjdkMTRkOCIsImV4cCI6MTY3NDA5ODg0MCwiaWF0IjoxNjc0MDEyNDQwfQ.DCd3G_rdckEInGqCEProIIRYMBA2aLvSQf1nepj6f44","user":{"id":"6223482f3c4f13001e815953","firstLogin":false,"firstName":"Gatot","lastName":"Soetikno","email":"settlement@bahana.co.id","role":"PEMUNGUTSPV","phoneNumber":"082115237855","userdetails":[{"locations":[{"id":"61611f66f51d250025864724","loccode":"PTPERURIDIGITALSECURITY","tpay":"PREPAID","custID":114,"loctype":{"description":"AD"}}],"locationother":[{"id":"61611f66f51d250025864724","loccode":"PTPERURIDIGITALSECURITY","tpay":"PREPAID","custID":114,"loctype":{"description":"AD"}},{"id":"622348252b660d0024779452","loccode":"PTBahanaSekuritas","tpay":"POSTPAID","custID":285,"loctype":{"description":"PEMUNGUT"}}]}],"accounts":[{"id":"62234826b1de8a0024662255","tipepay":"POSTPAID","tipeacct":"PEMUNGUT","parent":null,"statusreg":"APPROVE","desc":null,"companys":[{"nama":"PT Bahana Sekuritas"}]}]}}}}}
2023-01-18 13:59:16.266 EMeteraiRequestSnProdMain [INFO] gUserId: 6223482f3c4f13001e815953
2023-01-18 13:59:16.266 EMeteraiRequestSnProdMain [INFO] gLocationId: 61611f66f51d250025864724
2023-01-18 13:59:16.267 EMeteraiRequestSnProdMain [INFO] gToken: eyJhbGciOiJIUzI1NiIsInR5cCI6IkpXVCJ9.eyJlbWFpbCI6InNldHRsZW1lbnRAYmFoYW5hLmNvLmlkIiwic3ViIjoiNjIyMzQ4MmYzYzRmMTMwMDFlODE1OTUzIiwiYXVkIjoiaHR0cHM6Ly9lLW1ldGVyYWkuY28uaWQiLCJpc3MiOiJlbWV0ZXJhaSIsImp0aSI6IjRlODdjYzNkLWFjMDgtNDQ0OC1iM2VlLWZmZDhmYjdkMTRkOCIsImV4cCI6MTY3NDA5ODg0MCwiaWF0IjoxNjc0MDEyNDQwfQ.DCd3G_rdckEInGqCEProIIRYMBA2aLvSQf1nepj6f44
2023-01-18 13:59:16.268 EMeteraiRequestSnProdMain [INFO] loginToPeruri takes 260 msec
2023-01-18 13:59:16.269 EMeteraiRequestSnProdMain [INFO] generateSerialNumberReloginNotStamp takes 328 msec
2023-01-18 13:59:16.269 EMeteraiRequestSnProdMain [INFO] 2--->
2023-01-18 13:59:16.338 EMeteraiRequestSnProdMain [INFO] message: error err: Token Expired or Failed, try relogin!
2023-01-18 13:59:16.338 EMeteraiRequestSnProdMain [INFO] loginToPeruri()
2023-01-18 13:59:16.692 ResponseProcessCookies [WARN] Invalid cookie header: "Set-Cookie: ADRUM_BT=R:0|i:36311|g:1306b1bd-323b-4f88-9bc7-0dd76a2e0837349|e:6676|h:e|n:customer1_af0729ce-99ec-40eb-a09e-0e8d2f0dca0b; Path=/; Expires=Wed, 18 Jan 2023 07:12:03 GMT". Invalid 'expires' attribute: Wed, 18 Jan 2023 07:12:03 GMT
2023-01-18 13:59:16.693 EMeteraiRequestSnProdMain [INFO] {"statusCode":"00","message":"success","token":"eyJhbGciOiJIUzI1NiIsInR5cCI6IkpXVCJ9.eyJlbWFpbCI6InNldHRsZW1lbnRAYmFoYW5hLmNvLmlkIiwic3ViIjoiNjIyMzQ4MmYzYzRmMTMwMDFlODE1OTUzIiwiYXVkIjoiaHR0cHM6Ly9lLW1ldGVyYWkuY28uaWQiLCJpc3MiOiJlbWV0ZXJhaSIsImp0aSI6IjRlODdjYzNkLWFjMDgtNDQ0OC1iM2VlLWZmZDhmYjdkMTRkOCIsImV4cCI6MTY3NDA5ODg0MCwiaWF0IjoxNjc0MDEyNDQwfQ.DCd3G_rdckEInGqCEProIIRYMBA2aLvSQf1nepj6f44","result":{"data":{"login":{"token":"eyJhbGciOiJIUzI1NiIsInR5cCI6IkpXVCJ9.eyJlbWFpbCI6InNldHRsZW1lbnRAYmFoYW5hLmNvLmlkIiwic3ViIjoiNjIyMzQ4MmYzYzRmMTMwMDFlODE1OTUzIiwiYXVkIjoiaHR0cHM6Ly9lLW1ldGVyYWkuY28uaWQiLCJpc3MiOiJlbWV0ZXJhaSIsImp0aSI6IjRlODdjYzNkLWFjMDgtNDQ0OC1iM2VlLWZmZDhmYjdkMTRkOCIsImV4cCI6MTY3NDA5ODg0MCwiaWF0IjoxNjc0MDEyNDQwfQ.DCd3G_rdckEInGqCEProIIRYMBA2aLvSQf1nepj6f44","user":{"id":"6223482f3c4f13001e815953","firstLogin":false,"firstName":"Gatot","lastName":"Soetikno","email":"settlement@bahana.co.id","role":"PEMUNGUTSPV","phoneNumber":"082115237855","userdetails":[{"locations":[{"id":"61611f66f51d250025864724","loccode":"PTPERURIDIGITALSECURITY","tpay":"PREPAID","custID":114,"loctype":{"description":"AD"}}],"locationother":[{"id":"61611f66f51d250025864724","loccode":"PTPERURIDIGITALSECURITY","tpay":"PREPAID","custID":114,"loctype":{"description":"AD"}},{"id":"622348252b660d0024779452","loccode":"PTBahanaSekuritas","tpay":"POSTPAID","custID":285,"loctype":{"description":"PEMUNGUT"}}]}],"accounts":[{"id":"62234826b1de8a0024662255","tipepay":"POSTPAID","tipeacct":"PEMUNGUT","parent":null,"statusreg":"APPROVE","desc":null,"companys":[{"nama":"PT Bahana Sekuritas"}]}]}}}}}
2023-01-18 13:59:16.694 EMeteraiRequestSnProdMain [INFO] gUserId: 6223482f3c4f13001e815953
2023-01-18 13:59:16.694 EMeteraiRequestSnProdMain [INFO] gLocationId: 61611f66f51d250025864724
2023-01-18 13:59:16.694 EMeteraiRequestSnProdMain [INFO] gToken: eyJhbGciOiJIUzI1NiIsInR5cCI6IkpXVCJ9.eyJlbWFpbCI6InNldHRsZW1lbnRAYmFoYW5hLmNvLmlkIiwic3ViIjoiNjIyMzQ4MmYzYzRmMTMwMDFlODE1OTUzIiwiYXVkIjoiaHR0cHM6Ly9lLW1ldGVyYWkuY28uaWQiLCJpc3MiOiJlbWV0ZXJhaSIsImp0aSI6IjRlODdjYzNkLWFjMDgtNDQ0OC1iM2VlLWZmZDhmYjdkMTRkOCIsImV4cCI6MTY3NDA5ODg0MCwiaWF0IjoxNjc0MDEyNDQwfQ.DCd3G_rdckEInGqCEProIIRYMBA2aLvSQf1nepj6f44
2023-01-18 13:59:16.695 EMeteraiRequestSnProdMain [INFO] loginToPeruri takes 356 msec
2023-01-18 13:59:16.696 EMeteraiRequestSnProdMain [INFO] generateSerialNumberReloginNotStamp takes 427 msec
2023-01-18 13:59:16.697 EMeteraiRequestSnProdMain [INFO] 3--->
2023-01-18 13:59:16.765 EMeteraiRequestSnProdMain [INFO] message: error err: Token Expired or Failed, try relogin!
2023-01-18 13:59:16.765 EMeteraiRequestSnProdMain [INFO] loginToPeruri()
2023-01-18 13:59:23.785 ResponseProcessCookies [WARN] Invalid cookie header: "Set-Cookie: ADRUM_BT=R:0|i:36311|g:c14ed97c-85a1-42a2-9f1f-9646cff64908168|e:105|s:f|h:e|n:customer1_af0729ce-99ec-40eb-a09e-0e8d2f0dca0b; Path=/; Expires=Wed, 18 Jan 2023 07:12:10 GMT". Invalid 'expires' attribute: Wed, 18 Jan 2023 07:12:10 GMT
2023-01-18 13:59:23.786 EMeteraiRequestSnProdMain [INFO] {"statusCode":"00","message":"success","token":"eyJhbGciOiJIUzI1NiIsInR5cCI6IkpXVCJ9.eyJlbWFpbCI6InNldHRsZW1lbnRAYmFoYW5hLmNvLmlkIiwic3ViIjoiNjIyMzQ4MmYzYzRmMTMwMDFlODE1OTUzIiwiYXVkIjoiaHR0cHM6Ly9lLW1ldGVyYWkuY28uaWQiLCJpc3MiOiJlbWV0ZXJhaSIsImp0aSI6IjRlODdjYzNkLWFjMDgtNDQ0OC1iM2VlLWZmZDhmYjdkMTRkOCIsImV4cCI6MTY3NDA5ODg0MCwiaWF0IjoxNjc0MDEyNDQwfQ.DCd3G_rdckEInGqCEProIIRYMBA2aLvSQf1nepj6f44","result":{"data":{"login":{"token":"eyJhbGciOiJIUzI1NiIsInR5cCI6IkpXVCJ9.eyJlbWFpbCI6InNldHRsZW1lbnRAYmFoYW5hLmNvLmlkIiwic3ViIjoiNjIyMzQ4MmYzYzRmMTMwMDFlODE1OTUzIiwiYXVkIjoiaHR0cHM6Ly9lLW1ldGVyYWkuY28uaWQiLCJpc3MiOiJlbWV0ZXJhaSIsImp0aSI6IjRlODdjYzNkLWFjMDgtNDQ0OC1iM2VlLWZmZDhmYjdkMTRkOCIsImV4cCI6MTY3NDA5ODg0MCwiaWF0IjoxNjc0MDEyNDQwfQ.DCd3G_rdckEInGqCEProIIRYMBA2aLvSQf1nepj6f44","user":{"id":"6223482f3c4f13001e815953","firstLogin":false,"firstName":"Gatot","lastName":"Soetikno","email":"settlement@bahana.co.id","role":"PEMUNGUTSPV","phoneNumber":"082115237855","userdetails":[{"locations":[{"id":"61611f66f51d250025864724","loccode":"PTPERURIDIGITALSECURITY","tpay":"PREPAID","custID":114,"loctype":{"description":"AD"}}],"locationother":[{"id":"61611f66f51d250025864724","loccode":"PTPERURIDIGITALSECURITY","tpay":"PREPAID","custID":114,"loctype":{"description":"AD"}},{"id":"622348252b660d0024779452","loccode":"PTBahanaSekuritas","tpay":"POSTPAID","custID":285,"loctype":{"description":"PEMUNGUT"}}]}],"accounts":[{"id":"62234826b1de8a0024662255","tipepay":"POSTPAID","tipeacct":"PEMUNGUT","parent":null,"statusreg":"APPROVE","desc":null,"companys":[{"nama":"PT Bahana Sekuritas"}]}]}}}}}
2023-01-18 13:59:23.786 EMeteraiRequestSnProdMain [INFO] gUserId: 6223482f3c4f13001e815953
2023-01-18 13:59:23.787 EMeteraiRequestSnProdMain [INFO] gLocationId: 61611f66f51d250025864724
2023-01-18 13:59:23.787 EMeteraiRequestSnProdMain [INFO] gToken: eyJhbGciOiJIUzI1NiIsInR5cCI6IkpXVCJ9.eyJlbWFpbCI6InNldHRsZW1lbnRAYmFoYW5hLmNvLmlkIiwic3ViIjoiNjIyMzQ4MmYzYzRmMTMwMDFlODE1OTUzIiwiYXVkIjoiaHR0cHM6Ly9lLW1ldGVyYWkuY28uaWQiLCJpc3MiOiJlbWV0ZXJhaSIsImp0aSI6IjRlODdjYzNkLWFjMDgtNDQ0OC1iM2VlLWZmZDhmYjdkMTRkOCIsImV4cCI6MTY3NDA5ODg0MCwiaWF0IjoxNjc0MDEyNDQwfQ.DCd3G_rdckEInGqCEProIIRYMBA2aLvSQf1nepj6f44
2023-01-18 13:59:23.788 EMeteraiRequestSnProdMain [INFO] loginToPeruri takes 7022 msec
2023-01-18 13:59:23.789 EMeteraiRequestSnProdMain [INFO] generateSerialNumberReloginNotStamp takes 7092 msec
2023-01-18 13:59:23.789 EMeteraiRequestSnProdMain [INFO] 4--->
2023-01-18 13:59:23.852 EMeteraiRequestSnProdMain [INFO] message: error err: Token Expired or Failed, try relogin!
2023-01-18 13:59:23.852 EMeteraiRequestSnProdMain [INFO] loginToPeruri()
2023-01-18 13:59:24.127 ResponseProcessCookies [WARN] Invalid cookie header: "Set-Cookie: ADRUM_BT=R:0|i:36311|g:fd4b25b8-674f-4267-bdae-3e2726cc18b348|e:227|h:e|n:customer1_af0729ce-99ec-40eb-a09e-0e8d2f0dca0b; Path=/; Expires=Wed, 18 Jan 2023 07:12:11 GMT". Invalid 'expires' attribute: Wed, 18 Jan 2023 07:12:11 GMT
2023-01-18 13:59:24.128 EMeteraiRequestSnProdMain [INFO] {"statusCode":"00","message":"success","token":"eyJhbGciOiJIUzI1NiIsInR5cCI6IkpXVCJ9.eyJlbWFpbCI6InNldHRsZW1lbnRAYmFoYW5hLmNvLmlkIiwic3ViIjoiNjIyMzQ4MmYzYzRmMTMwMDFlODE1OTUzIiwiYXVkIjoiaHR0cHM6Ly9lLW1ldGVyYWkuY28uaWQiLCJpc3MiOiJlbWV0ZXJhaSIsImp0aSI6IjRlODdjYzNkLWFjMDgtNDQ0OC1iM2VlLWZmZDhmYjdkMTRkOCIsImV4cCI6MTY3NDA5ODg0MCwiaWF0IjoxNjc0MDEyNDQwfQ.DCd3G_rdckEInGqCEProIIRYMBA2aLvSQf1nepj6f44","result":{"data":{"login":{"token":"eyJhbGciOiJIUzI1NiIsInR5cCI6IkpXVCJ9.eyJlbWFpbCI6InNldHRsZW1lbnRAYmFoYW5hLmNvLmlkIiwic3ViIjoiNjIyMzQ4MmYzYzRmMTMwMDFlODE1OTUzIiwiYXVkIjoiaHR0cHM6Ly9lLW1ldGVyYWkuY28uaWQiLCJpc3MiOiJlbWV0ZXJhaSIsImp0aSI6IjRlODdjYzNkLWFjMDgtNDQ0OC1iM2VlLWZmZDhmYjdkMTRkOCIsImV4cCI6MTY3NDA5ODg0MCwiaWF0IjoxNjc0MDEyNDQwfQ.DCd3G_rdckEInGqCEProIIRYMBA2aLvSQf1nepj6f44","user":{"id":"6223482f3c4f13001e815953","firstLogin":false,"firstName":"Gatot","lastName":"Soetikno","email":"settlement@bahana.co.id","role":"PEMUNGUTSPV","phoneNumber":"082115237855","userdetails":[{"locations":[{"id":"61611f66f51d250025864724","loccode":"PTPERURIDIGITALSECURITY","tpay":"PREPAID","custID":114,"loctype":{"description":"AD"}}],"locationother":[{"id":"61611f66f51d250025864724","loccode":"PTPERURIDIGITALSECURITY","tpay":"PREPAID","custID":114,"loctype":{"description":"AD"}},{"id":"622348252b660d0024779452","loccode":"PTBahanaSekuritas","tpay":"POSTPAID","custID":285,"loctype":{"description":"PEMUNGUT"}}]}],"accounts":[{"id":"62234826b1de8a0024662255","tipepay":"POSTPAID","tipeacct":"PEMUNGUT","parent":null,"statusreg":"APPROVE","desc":null,"companys":[{"nama":"PT Bahana Sekuritas"}]}]}}}}}
2023-01-18 13:59:24.129 EMeteraiRequestSnProdMain [INFO] gUserId: 6223482f3c4f13001e815953
2023-01-18 13:59:24.129 EMeteraiRequestSnProdMain [INFO] gLocationId: 61611f66f51d250025864724
2023-01-18 13:59:24.130 EMeteraiRequestSnProdMain [INFO] gToken: eyJhbGciOiJIUzI1NiIsInR5cCI6IkpXVCJ9.eyJlbWFpbCI6InNldHRsZW1lbnRAYmFoYW5hLmNvLmlkIiwic3ViIjoiNjIyMzQ4MmYzYzRmMTMwMDFlODE1OTUzIiwiYXVkIjoiaHR0cHM6Ly9lLW1ldGVyYWkuY28uaWQiLCJpc3MiOiJlbWV0ZXJhaSIsImp0aSI6IjRlODdjYzNkLWFjMDgtNDQ0OC1iM2VlLWZmZDhmYjdkMTRkOCIsImV4cCI6MTY3NDA5ODg0MCwiaWF0IjoxNjc0MDEyNDQwfQ.DCd3G_rdckEInGqCEProIIRYMBA2aLvSQf1nepj6f44
2023-01-18 13:59:24.131 EMeteraiRequestSnProdMain [INFO] loginToPeruri takes 279 msec
2023-01-18 13:59:24.132 EMeteraiRequestSnProdMain [INFO] generateSerialNumberReloginNotStamp takes 343 msec
2023-01-18 13:59:24.132 EMeteraiRequestSnProdMain [INFO] 5--->
2023-01-18 13:59:24.204 EMeteraiRequestSnProdMain [INFO] message: error err: Token Expired or Failed, try relogin!
2023-01-18 13:59:24.205 EMeteraiRequestSnProdMain [INFO] loginToPeruri()
2023-01-18 13:59:24.403 ResponseProcessCookies [WARN] Invalid cookie header: "Set-Cookie: ADRUM_BT=R:0|i:36311|g:f4e91e17-1dc5-4160-be31-55c7f5d014c0259|e:463|h:e|n:customer1_af0729ce-99ec-40eb-a09e-0e8d2f0dca0b; Path=/; Expires=Wed, 18 Jan 2023 07:12:11 GMT". Invalid 'expires' attribute: Wed, 18 Jan 2023 07:12:11 GMT
2023-01-18 13:59:24.404 EMeteraiRequestSnProdMain [INFO] {"statusCode":"00","message":"success","token":"eyJhbGciOiJIUzI1NiIsInR5cCI6IkpXVCJ9.eyJlbWFpbCI6InNldHRsZW1lbnRAYmFoYW5hLmNvLmlkIiwic3ViIjoiNjIyMzQ4MmYzYzRmMTMwMDFlODE1OTUzIiwiYXVkIjoiaHR0cHM6Ly9lLW1ldGVyYWkuY28uaWQiLCJpc3MiOiJlbWV0ZXJhaSIsImp0aSI6IjRlODdjYzNkLWFjMDgtNDQ0OC1iM2VlLWZmZDhmYjdkMTRkOCIsImV4cCI6MTY3NDA5ODg0MCwiaWF0IjoxNjc0MDEyNDQwfQ.DCd3G_rdckEInGqCEProIIRYMBA2aLvSQf1nepj6f44","result":{"data":{"login":{"token":"eyJhbGciOiJIUzI1NiIsInR5cCI6IkpXVCJ9.eyJlbWFpbCI6InNldHRsZW1lbnRAYmFoYW5hLmNvLmlkIiwic3ViIjoiNjIyMzQ4MmYzYzRmMTMwMDFlODE1OTUzIiwiYXVkIjoiaHR0cHM6Ly9lLW1ldGVyYWkuY28uaWQiLCJpc3MiOiJlbWV0ZXJhaSIsImp0aSI6IjRlODdjYzNkLWFjMDgtNDQ0OC1iM2VlLWZmZDhmYjdkMTRkOCIsImV4cCI6MTY3NDA5ODg0MCwiaWF0IjoxNjc0MDEyNDQwfQ.DCd3G_rdckEInGqCEProIIRYMBA2aLvSQf1nepj6f44","user":{"id":"6223482f3c4f13001e815953","firstLogin":false,"firstName":"Gatot","lastName":"Soetikno","email":"settlement@bahana.co.id","role":"PEMUNGUTSPV","phoneNumber":"082115237855","userdetails":[{"locations":[{"id":"61611f66f51d250025864724","loccode":"PTPERURIDIGITALSECURITY","tpay":"PREPAID","custID":114,"loctype":{"description":"AD"}}],"locationother":[{"id":"61611f66f51d250025864724","loccode":"PTPERURIDIGITALSECURITY","tpay":"PREPAID","custID":114,"loctype":{"description":"AD"}},{"id":"622348252b660d0024779452","loccode":"PTBahanaSekuritas","tpay":"POSTPAID","custID":285,"loctype":{"description":"PEMUNGUT"}}]}],"accounts":[{"id":"62234826b1de8a0024662255","tipepay":"POSTPAID","tipeacct":"PEMUNGUT","parent":null,"statusreg":"APPROVE","desc":null,"companys":[{"nama":"PT Bahana Sekuritas"}]}]}}}}}
2023-01-18 13:59:24.404 EMeteraiRequestSnProdMain [INFO] gUserId: 6223482f3c4f13001e815953
2023-01-18 13:59:24.405 EMeteraiRequestSnProdMain [INFO] gLocationId: 61611f66f51d250025864724
2023-01-18 13:59:24.405 EMeteraiRequestSnProdMain [INFO] gToken: eyJhbGciOiJIUzI1NiIsInR5cCI6IkpXVCJ9.eyJlbWFpbCI6InNldHRsZW1lbnRAYmFoYW5hLmNvLmlkIiwic3ViIjoiNjIyMzQ4MmYzYzRmMTMwMDFlODE1OTUzIiwiYXVkIjoiaHR0cHM6Ly9lLW1ldGVyYWkuY28uaWQiLCJpc3MiOiJlbWV0ZXJhaSIsImp0aSI6IjRlODdjYzNkLWFjMDgtNDQ0OC1iM2VlLWZmZDhmYjdkMTRkOCIsImV4cCI6MTY3NDA5ODg0MCwiaWF0IjoxNjc0MDEyNDQwfQ.DCd3G_rdckEInGqCEProIIRYMBA2aLvSQf1nepj6f44
2023-01-18 13:59:24.406 EMeteraiRequestSnProdMain [INFO] loginToPeruri takes 201 msec
2023-01-18 13:59:24.407 EMeteraiRequestSnProdMain [INFO] generateSerialNumberReloginNotStamp takes 275 msec
2023-01-18 13:59:24.407 EMeteraiRequestSnProdMain [INFO] 6--->
2023-01-18 13:59:24.473 EMeteraiRequestSnProdMain [INFO] message: error err: Token Expired or Failed, try relogin!
2023-01-18 13:59:24.473 EMeteraiRequestSnProdMain [INFO] loginToPeruri()
2023-01-18 13:59:24.723 ResponseProcessCookies [WARN] Invalid cookie header: "Set-Cookie: ADRUM_BT=R:0|i:36311|g:1b79a806-b424-4eef-a41d-c3119940864454|e:89|s:f|h:e|n:customer1_af0729ce-99ec-40eb-a09e-0e8d2f0dca0b; Path=/; Expires=Wed, 18 Jan 2023 07:12:11 GMT". Invalid 'expires' attribute: Wed, 18 Jan 2023 07:12:11 GMT
2023-01-18 13:59:24.724 EMeteraiRequestSnProdMain [INFO] {"statusCode":"00","message":"success","token":"eyJhbGciOiJIUzI1NiIsInR5cCI6IkpXVCJ9.eyJlbWFpbCI6InNldHRsZW1lbnRAYmFoYW5hLmNvLmlkIiwic3ViIjoiNjIyMzQ4MmYzYzRmMTMwMDFlODE1OTUzIiwiYXVkIjoiaHR0cHM6Ly9lLW1ldGVyYWkuY28uaWQiLCJpc3MiOiJlbWV0ZXJhaSIsImp0aSI6IjRlODdjYzNkLWFjMDgtNDQ0OC1iM2VlLWZmZDhmYjdkMTRkOCIsImV4cCI6MTY3NDA5ODg0MCwiaWF0IjoxNjc0MDEyNDQwfQ.DCd3G_rdckEInGqCEProIIRYMBA2aLvSQf1nepj6f44","result":{"data":{"login":{"token":"eyJhbGciOiJIUzI1NiIsInR5cCI6IkpXVCJ9.eyJlbWFpbCI6InNldHRsZW1lbnRAYmFoYW5hLmNvLmlkIiwic3ViIjoiNjIyMzQ4MmYzYzRmMTMwMDFlODE1OTUzIiwiYXVkIjoiaHR0cHM6Ly9lLW1ldGVyYWkuY28uaWQiLCJpc3MiOiJlbWV0ZXJhaSIsImp0aSI6IjRlODdjYzNkLWFjMDgtNDQ0OC1iM2VlLWZmZDhmYjdkMTRkOCIsImV4cCI6MTY3NDA5ODg0MCwiaWF0IjoxNjc0MDEyNDQwfQ.DCd3G_rdckEInGqCEProIIRYMBA2aLvSQf1nepj6f44","user":{"id":"6223482f3c4f13001e815953","firstLogin":false,"firstName":"Gatot","lastName":"Soetikno","email":"settlement@bahana.co.id","role":"PEMUNGUTSPV","phoneNumber":"082115237855","userdetails":[{"locations":[{"id":"61611f66f51d250025864724","loccode":"PTPERURIDIGITALSECURITY","tpay":"PREPAID","custID":114,"loctype":{"description":"AD"}}],"locationother":[{"id":"61611f66f51d250025864724","loccode":"PTPERURIDIGITALSECURITY","tpay":"PREPAID","custID":114,"loctype":{"description":"AD"}},{"id":"622348252b660d0024779452","loccode":"PTBahanaSekuritas","tpay":"POSTPAID","custID":285,"loctype":{"description":"PEMUNGUT"}}]}],"accounts":[{"id":"62234826b1de8a0024662255","tipepay":"POSTPAID","tipeacct":"PEMUNGUT","parent":null,"statusreg":"APPROVE","desc":null,"companys":[{"nama":"PT Bahana Sekuritas"}]}]}}}}}
2023-01-18 13:59:24.725 EMeteraiRequestSnProdMain [INFO] gUserId: 6223482f3c4f13001e815953
2023-01-18 13:59:24.725 EMeteraiRequestSnProdMain [INFO] gLocationId: 61611f66f51d250025864724
2023-01-18 13:59:24.725 EMeteraiRequestSnProdMain [INFO] gToken: eyJhbGciOiJIUzI1NiIsInR5cCI6IkpXVCJ9.eyJlbWFpbCI6InNldHRsZW1lbnRAYmFoYW5hLmNvLmlkIiwic3ViIjoiNjIyMzQ4MmYzYzRmMTMwMDFlODE1OTUzIiwiYXVkIjoiaHR0cHM6Ly9lLW1ldGVyYWkuY28uaWQiLCJpc3MiOiJlbWV0ZXJhaSIsImp0aSI6IjRlODdjYzNkLWFjMDgtNDQ0OC1iM2VlLWZmZDhmYjdkMTRkOCIsImV4cCI6MTY3NDA5ODg0MCwiaWF0IjoxNjc0MDEyNDQwfQ.DCd3G_rdckEInGqCEProIIRYMBA2aLvSQf1nepj6f44
2023-01-18 13:59:24.727 EMeteraiRequestSnProdMain [INFO] loginToPeruri takes 253 msec
2023-01-18 13:59:24.728 EMeteraiRequestSnProdMain [INFO] generateSerialNumberReloginNotStamp takes 320 msec
2023-01-18 13:59:24.728 EMeteraiRequestSnProdMain [INFO] 7--->
2023-01-18 13:59:24.785 EMeteraiRequestSnProdMain [INFO] message: error err: Token Expired or Failed, try relogin!
2023-01-18 13:59:24.785 EMeteraiRequestSnProdMain [INFO] loginToPeruri()
2023-01-18 14:04:35.545 EMeteraiRequestSnProdMain [INFO] 
2023-01-18 14:04:35.547 EMeteraiRequestSnProdMain [INFO] 
2023-01-18 14:04:35.547 EMeteraiRequestSnProdMain [INFO] Application started...
2023-01-18 14:04:35.548 EMeteraiRequestSnProdMain [INFO] loginToPeruri()
2023-01-18 14:04:37.178 ResponseProcessCookies [WARN] Invalid cookie header: "Set-Cookie: ADRUM_BT=R:0|i:36311|g:6b70e039-580f-413b-a650-e55bb20a2070289|e:0|h:e|n:customer1_af0729ce-99ec-40eb-a09e-0e8d2f0dca0b; Path=/; Expires=Wed, 18 Jan 2023 07:17:24 GMT". Invalid 'expires' attribute: Wed, 18 Jan 2023 07:17:24 GMT
2023-01-18 14:04:37.181 EMeteraiRequestSnProdMain [INFO] {"statusCode":"00","message":"success","token":"eyJhbGciOiJIUzI1NiIsInR5cCI6IkpXVCJ9.eyJlbWFpbCI6InNldHRsZW1lbnRAYmFoYW5hLmNvLmlkIiwic3ViIjoiNjIyMzQ4MmYzYzRmMTMwMDFlODE1OTUzIiwiYXVkIjoiaHR0cHM6Ly9lLW1ldGVyYWkuY28uaWQiLCJpc3MiOiJlbWV0ZXJhaSIsImp0aSI6IjRlODdjYzNkLWFjMDgtNDQ0OC1iM2VlLWZmZDhmYjdkMTRkOCIsImV4cCI6MTY3NDA5ODg0MCwiaWF0IjoxNjc0MDEyNDQwfQ.DCd3G_rdckEInGqCEProIIRYMBA2aLvSQf1nepj6f44","result":{"data":{"login":{"token":"eyJhbGciOiJIUzI1NiIsInR5cCI6IkpXVCJ9.eyJlbWFpbCI6InNldHRsZW1lbnRAYmFoYW5hLmNvLmlkIiwic3ViIjoiNjIyMzQ4MmYzYzRmMTMwMDFlODE1OTUzIiwiYXVkIjoiaHR0cHM6Ly9lLW1ldGVyYWkuY28uaWQiLCJpc3MiOiJlbWV0ZXJhaSIsImp0aSI6IjRlODdjYzNkLWFjMDgtNDQ0OC1iM2VlLWZmZDhmYjdkMTRkOCIsImV4cCI6MTY3NDA5ODg0MCwiaWF0IjoxNjc0MDEyNDQwfQ.DCd3G_rdckEInGqCEProIIRYMBA2aLvSQf1nepj6f44","user":{"id":"6223482f3c4f13001e815953","firstLogin":false,"firstName":"Gatot","lastName":"Soetikno","email":"settlement@bahana.co.id","role":"PEMUNGUTSPV","phoneNumber":"082115237855","userdetails":[{"locations":[{"id":"61611f66f51d250025864724","loccode":"PTPERURIDIGITALSECURITY","tpay":"PREPAID","custID":114,"loctype":{"description":"AD"}}],"locationother":[{"id":"61611f66f51d250025864724","loccode":"PTPERURIDIGITALSECURITY","tpay":"PREPAID","custID":114,"loctype":{"description":"AD"}},{"id":"622348252b660d0024779452","loccode":"PTBahanaSekuritas","tpay":"POSTPAID","custID":285,"loctype":{"description":"PEMUNGUT"}}]}],"accounts":[{"id":"62234826b1de8a0024662255","tipepay":"POSTPAID","tipeacct":"PEMUNGUT","parent":null,"statusreg":"APPROVE","desc":null,"companys":[{"nama":"PT Bahana Sekuritas"}]}]}}}}}
2023-01-18 14:04:37.190 EMeteraiRequestSnProdMain [INFO] gUserId: 6223482f3c4f13001e815953
2023-01-18 14:04:37.191 EMeteraiRequestSnProdMain [INFO] gLocationId: 61611f66f51d250025864724
2023-01-18 14:04:37.191 EMeteraiRequestSnProdMain [INFO] gToken: eyJhbGciOiJIUzI1NiIsInR5cCI6IkpXVCJ9.eyJlbWFpbCI6InNldHRsZW1lbnRAYmFoYW5hLmNvLmlkIiwic3ViIjoiNjIyMzQ4MmYzYzRmMTMwMDFlODE1OTUzIiwiYXVkIjoiaHR0cHM6Ly9lLW1ldGVyYWkuY28uaWQiLCJpc3MiOiJlbWV0ZXJhaSIsImp0aSI6IjRlODdjYzNkLWFjMDgtNDQ0OC1iM2VlLWZmZDhmYjdkMTRkOCIsImV4cCI6MTY3NDA5ODg0MCwiaWF0IjoxNjc0MDEyNDQwfQ.DCd3G_rdckEInGqCEProIIRYMBA2aLvSQf1nepj6f44
2023-01-18 14:04:37.197 EMeteraiRequestSnProdMain [INFO] loginToPeruri takes 1649 msec
2023-01-18 14:04:37.198 EMeteraiRequestSnProdMain [INFO] g_toberequested=1000
2023-01-18 14:04:37.198 EMeteraiRequestSnProdMain [INFO] 0--->
2023-01-18 14:04:37.356 EMeteraiRequestSnProdMain [INFO] message: error err: Token Expired or Failed, try relogin!
2023-01-18 14:04:37.356 EMeteraiRequestSnProdMain [INFO] loginToPeruri()
2023-01-18 14:04:44.726 ResponseProcessCookies [WARN] Invalid cookie header: "Set-Cookie: ADRUM_BT=R:0|i:36311|g:a63a41de-aef7-4e5b-b70b-cbaf7c735ce1804|e:131|s:f|h:e|n:customer1_af0729ce-99ec-40eb-a09e-0e8d2f0dca0b; Path=/; Expires=Wed, 18 Jan 2023 07:17:31 GMT". Invalid 'expires' attribute: Wed, 18 Jan 2023 07:17:31 GMT
2023-01-18 14:04:44.727 EMeteraiRequestSnProdMain [INFO] {"statusCode":"00","message":"success","token":"eyJhbGciOiJIUzI1NiIsInR5cCI6IkpXVCJ9.eyJlbWFpbCI6InNldHRsZW1lbnRAYmFoYW5hLmNvLmlkIiwic3ViIjoiNjIyMzQ4MmYzYzRmMTMwMDFlODE1OTUzIiwiYXVkIjoiaHR0cHM6Ly9lLW1ldGVyYWkuY28uaWQiLCJpc3MiOiJlbWV0ZXJhaSIsImp0aSI6IjRlODdjYzNkLWFjMDgtNDQ0OC1iM2VlLWZmZDhmYjdkMTRkOCIsImV4cCI6MTY3NDA5ODg0MCwiaWF0IjoxNjc0MDEyNDQwfQ.DCd3G_rdckEInGqCEProIIRYMBA2aLvSQf1nepj6f44","result":{"data":{"login":{"token":"eyJhbGciOiJIUzI1NiIsInR5cCI6IkpXVCJ9.eyJlbWFpbCI6InNldHRsZW1lbnRAYmFoYW5hLmNvLmlkIiwic3ViIjoiNjIyMzQ4MmYzYzRmMTMwMDFlODE1OTUzIiwiYXVkIjoiaHR0cHM6Ly9lLW1ldGVyYWkuY28uaWQiLCJpc3MiOiJlbWV0ZXJhaSIsImp0aSI6IjRlODdjYzNkLWFjMDgtNDQ0OC1iM2VlLWZmZDhmYjdkMTRkOCIsImV4cCI6MTY3NDA5ODg0MCwiaWF0IjoxNjc0MDEyNDQwfQ.DCd3G_rdckEInGqCEProIIRYMBA2aLvSQf1nepj6f44","user":{"id":"6223482f3c4f13001e815953","firstLogin":false,"firstName":"Gatot","lastName":"Soetikno","email":"settlement@bahana.co.id","role":"PEMUNGUTSPV","phoneNumber":"082115237855","userdetails":[{"locations":[{"id":"61611f66f51d250025864724","loccode":"PTPERURIDIGITALSECURITY","tpay":"PREPAID","custID":114,"loctype":{"description":"AD"}}],"locationother":[{"id":"61611f66f51d250025864724","loccode":"PTPERURIDIGITALSECURITY","tpay":"PREPAID","custID":114,"loctype":{"description":"AD"}},{"id":"622348252b660d0024779452","loccode":"PTBahanaSekuritas","tpay":"POSTPAID","custID":285,"loctype":{"description":"PEMUNGUT"}}]}],"accounts":[{"id":"62234826b1de8a0024662255","tipepay":"POSTPAID","tipeacct":"PEMUNGUT","parent":null,"statusreg":"APPROVE","desc":null,"companys":[{"nama":"PT Bahana Sekuritas"}]}]}}}}}
2023-01-18 14:04:44.728 EMeteraiRequestSnProdMain [INFO] gUserId: 6223482f3c4f13001e815953
2023-01-18 14:04:44.728 EMeteraiRequestSnProdMain [INFO] gLocationId: 61611f66f51d250025864724
2023-01-18 14:04:44.728 EMeteraiRequestSnProdMain [INFO] gToken: eyJhbGciOiJIUzI1NiIsInR5cCI6IkpXVCJ9.eyJlbWFpbCI6InNldHRsZW1lbnRAYmFoYW5hLmNvLmlkIiwic3ViIjoiNjIyMzQ4MmYzYzRmMTMwMDFlODE1OTUzIiwiYXVkIjoiaHR0cHM6Ly9lLW1ldGVyYWkuY28uaWQiLCJpc3MiOiJlbWV0ZXJhaSIsImp0aSI6IjRlODdjYzNkLWFjMDgtNDQ0OC1iM2VlLWZmZDhmYjdkMTRkOCIsImV4cCI6MTY3NDA5ODg0MCwiaWF0IjoxNjc0MDEyNDQwfQ.DCd3G_rdckEInGqCEProIIRYMBA2aLvSQf1nepj6f44
2023-01-18 14:04:44.729 EMeteraiRequestSnProdMain [INFO] loginToPeruri takes 7372 msec
2023-01-18 14:04:44.730 EMeteraiRequestSnProdMain [INFO] generateSerialNumberReloginNotStamp takes 7532 msec
2023-01-18 14:04:44.731 EMeteraiRequestSnProdMain [INFO] 1--->
2023-01-18 14:04:44.813 EMeteraiRequestSnProdMain [INFO] message: error err: Token Expired or Failed, try relogin!
2023-01-18 14:04:44.813 EMeteraiRequestSnProdMain [INFO] loginToPeruri()
2023-01-18 14:04:44.894 ResponseProcessCookies [WARN] Invalid cookie header: "Set-Cookie: ADRUM_BT=R:0|i:36311|g:95ed1b83-7c11-408c-926f-b7f0c48242f4185|e:108|h:e|n:customer1_af0729ce-99ec-40eb-a09e-0e8d2f0dca0b; Path=/; Expires=Wed, 18 Jan 2023 07:17:32 GMT". Invalid 'expires' attribute: Wed, 18 Jan 2023 07:17:32 GMT
2023-01-18 14:04:44.895 EMeteraiRequestSnProdMain [INFO] {"statusCode":"00","message":"success","token":"eyJhbGciOiJIUzI1NiIsInR5cCI6IkpXVCJ9.eyJlbWFpbCI6InNldHRsZW1lbnRAYmFoYW5hLmNvLmlkIiwic3ViIjoiNjIyMzQ4MmYzYzRmMTMwMDFlODE1OTUzIiwiYXVkIjoiaHR0cHM6Ly9lLW1ldGVyYWkuY28uaWQiLCJpc3MiOiJlbWV0ZXJhaSIsImp0aSI6IjRlODdjYzNkLWFjMDgtNDQ0OC1iM2VlLWZmZDhmYjdkMTRkOCIsImV4cCI6MTY3NDA5ODg0MCwiaWF0IjoxNjc0MDEyNDQwfQ.DCd3G_rdckEInGqCEProIIRYMBA2aLvSQf1nepj6f44","result":{"data":{"login":{"token":"eyJhbGciOiJIUzI1NiIsInR5cCI6IkpXVCJ9.eyJlbWFpbCI6InNldHRsZW1lbnRAYmFoYW5hLmNvLmlkIiwic3ViIjoiNjIyMzQ4MmYzYzRmMTMwMDFlODE1OTUzIiwiYXVkIjoiaHR0cHM6Ly9lLW1ldGVyYWkuY28uaWQiLCJpc3MiOiJlbWV0ZXJhaSIsImp0aSI6IjRlODdjYzNkLWFjMDgtNDQ0OC1iM2VlLWZmZDhmYjdkMTRkOCIsImV4cCI6MTY3NDA5ODg0MCwiaWF0IjoxNjc0MDEyNDQwfQ.DCd3G_rdckEInGqCEProIIRYMBA2aLvSQf1nepj6f44","user":{"id":"6223482f3c4f13001e815953","firstLogin":false,"firstName":"Gatot","lastName":"Soetikno","email":"settlement@bahana.co.id","role":"PEMUNGUTSPV","phoneNumber":"082115237855","userdetails":[{"locations":[{"id":"61611f66f51d250025864724","loccode":"PTPERURIDIGITALSECURITY","tpay":"PREPAID","custID":114,"loctype":{"description":"AD"}}],"locationother":[{"id":"61611f66f51d250025864724","loccode":"PTPERURIDIGITALSECURITY","tpay":"PREPAID","custID":114,"loctype":{"description":"AD"}},{"id":"622348252b660d0024779452","loccode":"PTBahanaSekuritas","tpay":"POSTPAID","custID":285,"loctype":{"description":"PEMUNGUT"}}]}],"accounts":[{"id":"62234826b1de8a0024662255","tipepay":"POSTPAID","tipeacct":"PEMUNGUT","parent":null,"statusreg":"APPROVE","desc":null,"companys":[{"nama":"PT Bahana Sekuritas"}]}]}}}}}
2023-01-18 14:04:44.896 EMeteraiRequestSnProdMain [INFO] gUserId: 6223482f3c4f13001e815953
2023-01-18 14:04:44.896 EMeteraiRequestSnProdMain [INFO] gLocationId: 61611f66f51d250025864724
2023-01-18 14:04:44.897 EMeteraiRequestSnProdMain [INFO] gToken: eyJhbGciOiJIUzI1NiIsInR5cCI6IkpXVCJ9.eyJlbWFpbCI6InNldHRsZW1lbnRAYmFoYW5hLmNvLmlkIiwic3ViIjoiNjIyMzQ4MmYzYzRmMTMwMDFlODE1OTUzIiwiYXVkIjoiaHR0cHM6Ly9lLW1ldGVyYWkuY28uaWQiLCJpc3MiOiJlbWV0ZXJhaSIsImp0aSI6IjRlODdjYzNkLWFjMDgtNDQ0OC1iM2VlLWZmZDhmYjdkMTRkOCIsImV4cCI6MTY3NDA5ODg0MCwiaWF0IjoxNjc0MDEyNDQwfQ.DCd3G_rdckEInGqCEProIIRYMBA2aLvSQf1nepj6f44
2023-01-18 14:04:44.898 EMeteraiRequestSnProdMain [INFO] loginToPeruri takes 85 msec
2023-01-18 14:04:44.899 EMeteraiRequestSnProdMain [INFO] generateSerialNumberReloginNotStamp takes 168 msec
2023-01-18 14:04:44.899 EMeteraiRequestSnProdMain [INFO] 2--->
2023-01-18 14:04:44.966 EMeteraiRequestSnProdMain [INFO] message: error err: Token Expired or Failed, try relogin!
2023-01-18 14:04:44.967 EMeteraiRequestSnProdMain [INFO] loginToPeruri()
2023-01-18 14:04:45.145 ResponseProcessCookies [WARN] Invalid cookie header: "Set-Cookie: ADRUM_BT=R:0|i:36311|g:180568c8-4b6b-4ed7-875e-1c73c0ce85f262|e:148|h:e|n:customer1_af0729ce-99ec-40eb-a09e-0e8d2f0dca0b; Path=/; Expires=Wed, 18 Jan 2023 07:17:32 GMT". Invalid 'expires' attribute: Wed, 18 Jan 2023 07:17:32 GMT
2023-01-18 14:04:45.146 EMeteraiRequestSnProdMain [INFO] {"statusCode":"00","message":"success","token":"eyJhbGciOiJIUzI1NiIsInR5cCI6IkpXVCJ9.eyJlbWFpbCI6InNldHRsZW1lbnRAYmFoYW5hLmNvLmlkIiwic3ViIjoiNjIyMzQ4MmYzYzRmMTMwMDFlODE1OTUzIiwiYXVkIjoiaHR0cHM6Ly9lLW1ldGVyYWkuY28uaWQiLCJpc3MiOiJlbWV0ZXJhaSIsImp0aSI6IjRlODdjYzNkLWFjMDgtNDQ0OC1iM2VlLWZmZDhmYjdkMTRkOCIsImV4cCI6MTY3NDA5ODg0MCwiaWF0IjoxNjc0MDEyNDQwfQ.DCd3G_rdckEInGqCEProIIRYMBA2aLvSQf1nepj6f44","result":{"data":{"login":{"token":"eyJhbGciOiJIUzI1NiIsInR5cCI6IkpXVCJ9.eyJlbWFpbCI6InNldHRsZW1lbnRAYmFoYW5hLmNvLmlkIiwic3ViIjoiNjIyMzQ4MmYzYzRmMTMwMDFlODE1OTUzIiwiYXVkIjoiaHR0cHM6Ly9lLW1ldGVyYWkuY28uaWQiLCJpc3MiOiJlbWV0ZXJhaSIsImp0aSI6IjRlODdjYzNkLWFjMDgtNDQ0OC1iM2VlLWZmZDhmYjdkMTRkOCIsImV4cCI6MTY3NDA5ODg0MCwiaWF0IjoxNjc0MDEyNDQwfQ.DCd3G_rdckEInGqCEProIIRYMBA2aLvSQf1nepj6f44","user":{"id":"6223482f3c4f13001e815953","firstLogin":false,"firstName":"Gatot","lastName":"Soetikno","email":"settlement@bahana.co.id","role":"PEMUNGUTSPV","phoneNumber":"082115237855","userdetails":[{"locations":[{"id":"61611f66f51d250025864724","loccode":"PTPERURIDIGITALSECURITY","tpay":"PREPAID","custID":114,"loctype":{"description":"AD"}}],"locationother":[{"id":"61611f66f51d250025864724","loccode":"PTPERURIDIGITALSECURITY","tpay":"PREPAID","custID":114,"loctype":{"description":"AD"}},{"id":"622348252b660d0024779452","loccode":"PTBahanaSekuritas","tpay":"POSTPAID","custID":285,"loctype":{"description":"PEMUNGUT"}}]}],"accounts":[{"id":"62234826b1de8a0024662255","tipepay":"POSTPAID","tipeacct":"PEMUNGUT","parent":null,"statusreg":"APPROVE","desc":null,"companys":[{"nama":"PT Bahana Sekuritas"}]}]}}}}}
2023-01-18 14:04:45.147 EMeteraiRequestSnProdMain [INFO] gUserId: 6223482f3c4f13001e815953
2023-01-18 14:04:45.148 EMeteraiRequestSnProdMain [INFO] gLocationId: 61611f66f51d250025864724
2023-01-18 14:04:45.148 EMeteraiRequestSnProdMain [INFO] gToken: eyJhbGciOiJIUzI1NiIsInR5cCI6IkpXVCJ9.eyJlbWFpbCI6InNldHRsZW1lbnRAYmFoYW5hLmNvLmlkIiwic3ViIjoiNjIyMzQ4MmYzYzRmMTMwMDFlODE1OTUzIiwiYXVkIjoiaHR0cHM6Ly9lLW1ldGVyYWkuY28uaWQiLCJpc3MiOiJlbWV0ZXJhaSIsImp0aSI6IjRlODdjYzNkLWFjMDgtNDQ0OC1iM2VlLWZmZDhmYjdkMTRkOCIsImV4cCI6MTY3NDA5ODg0MCwiaWF0IjoxNjc0MDEyNDQwfQ.DCd3G_rdckEInGqCEProIIRYMBA2aLvSQf1nepj6f44
2023-01-18 14:04:45.149 EMeteraiRequestSnProdMain [INFO] loginToPeruri takes 182 msec
2023-01-18 14:04:45.150 EMeteraiRequestSnProdMain [INFO] generateSerialNumberReloginNotStamp takes 250 msec
2023-01-18 14:04:45.150 EMeteraiRequestSnProdMain [INFO] 3--->
2023-01-18 14:04:45.212 EMeteraiRequestSnProdMain [INFO] message: error err: Token Expired or Failed, try relogin!
2023-01-18 14:04:45.212 EMeteraiRequestSnProdMain [INFO] loginToPeruri()
2023-01-18 14:04:45.789 ResponseProcessCookies [WARN] Invalid cookie header: "Set-Cookie: ADRUM_BT=R:0|i:36311|g:ad98494c-9e13-4edb-9015-ec77d7662c7f55|e:0|s:f|h:e|n:customer1_af0729ce-99ec-40eb-a09e-0e8d2f0dca0b; Path=/; Expires=Wed, 18 Jan 2023 07:17:32 GMT". Invalid 'expires' attribute: Wed, 18 Jan 2023 07:17:32 GMT
2023-01-18 14:04:45.790 EMeteraiRequestSnProdMain [INFO] {"statusCode":"00","message":"success","token":"eyJhbGciOiJIUzI1NiIsInR5cCI6IkpXVCJ9.eyJlbWFpbCI6InNldHRsZW1lbnRAYmFoYW5hLmNvLmlkIiwic3ViIjoiNjIyMzQ4MmYzYzRmMTMwMDFlODE1OTUzIiwiYXVkIjoiaHR0cHM6Ly9lLW1ldGVyYWkuY28uaWQiLCJpc3MiOiJlbWV0ZXJhaSIsImp0aSI6IjRlODdjYzNkLWFjMDgtNDQ0OC1iM2VlLWZmZDhmYjdkMTRkOCIsImV4cCI6MTY3NDA5ODg0MCwiaWF0IjoxNjc0MDEyNDQwfQ.DCd3G_rdckEInGqCEProIIRYMBA2aLvSQf1nepj6f44","result":{"data":{"login":{"token":"eyJhbGciOiJIUzI1NiIsInR5cCI6IkpXVCJ9.eyJlbWFpbCI6InNldHRsZW1lbnRAYmFoYW5hLmNvLmlkIiwic3ViIjoiNjIyMzQ4MmYzYzRmMTMwMDFlODE1OTUzIiwiYXVkIjoiaHR0cHM6Ly9lLW1ldGVyYWkuY28uaWQiLCJpc3MiOiJlbWV0ZXJhaSIsImp0aSI6IjRlODdjYzNkLWFjMDgtNDQ0OC1iM2VlLWZmZDhmYjdkMTRkOCIsImV4cCI6MTY3NDA5ODg0MCwiaWF0IjoxNjc0MDEyNDQwfQ.DCd3G_rdckEInGqCEProIIRYMBA2aLvSQf1nepj6f44","user":{"id":"6223482f3c4f13001e815953","firstLogin":false,"firstName":"Gatot","lastName":"Soetikno","email":"settlement@bahana.co.id","role":"PEMUNGUTSPV","phoneNumber":"082115237855","userdetails":[{"locations":[{"id":"61611f66f51d250025864724","loccode":"PTPERURIDIGITALSECURITY","tpay":"PREPAID","custID":114,"loctype":{"description":"AD"}}],"locationother":[{"id":"61611f66f51d250025864724","loccode":"PTPERURIDIGITALSECURITY","tpay":"PREPAID","custID":114,"loctype":{"description":"AD"}},{"id":"622348252b660d0024779452","loccode":"PTBahanaSekuritas","tpay":"POSTPAID","custID":285,"loctype":{"description":"PEMUNGUT"}}]}],"accounts":[{"id":"62234826b1de8a0024662255","tipepay":"POSTPAID","tipeacct":"PEMUNGUT","parent":null,"statusreg":"APPROVE","desc":null,"companys":[{"nama":"PT Bahana Sekuritas"}]}]}}}}}
2023-01-18 14:04:45.792 EMeteraiRequestSnProdMain [INFO] gUserId: 6223482f3c4f13001e815953
2023-01-18 14:04:45.792 EMeteraiRequestSnProdMain [INFO] gLocationId: 61611f66f51d250025864724
2023-01-18 14:04:45.793 EMeteraiRequestSnProdMain [INFO] gToken: eyJhbGciOiJIUzI1NiIsInR5cCI6IkpXVCJ9.eyJlbWFpbCI6InNldHRsZW1lbnRAYmFoYW5hLmNvLmlkIiwic3ViIjoiNjIyMzQ4MmYzYzRmMTMwMDFlODE1OTUzIiwiYXVkIjoiaHR0cHM6Ly9lLW1ldGVyYWkuY28uaWQiLCJpc3MiOiJlbWV0ZXJhaSIsImp0aSI6IjRlODdjYzNkLWFjMDgtNDQ0OC1iM2VlLWZmZDhmYjdkMTRkOCIsImV4cCI6MTY3NDA5ODg0MCwiaWF0IjoxNjc0MDEyNDQwfQ.DCd3G_rdckEInGqCEProIIRYMBA2aLvSQf1nepj6f44
2023-01-18 14:04:45.793 EMeteraiRequestSnProdMain [INFO] loginToPeruri takes 581 msec
2023-01-18 14:04:45.794 EMeteraiRequestSnProdMain [INFO] generateSerialNumberReloginNotStamp takes 643 msec
2023-01-18 14:04:45.801 EMeteraiRequestSnProdMain [INFO] 4--->
2023-01-18 14:04:45.868 EMeteraiRequestSnProdMain [INFO] message: error err: Token Expired or Failed, try relogin!
2023-01-18 14:04:45.868 EMeteraiRequestSnProdMain [INFO] loginToPeruri()
