Java HotSpot(TM) 64-Bit Server VM warning: ignoring option MaxPermSize=256m; support was removed in 8.0
01-Apr-2022 14:11:36.918 INFO [main] org.apache.catalina.startup.VersionLoggerListener.log Server version name:   Apache Tomcat/8.5.75
01-Apr-2022 14:11:37.116 INFO [main] org.apache.catalina.startup.VersionLoggerListener.log Server built:          Jan 17 2022 22:07:47 UTC
01-Apr-2022 14:11:37.117 INFO [main] org.apache.catalina.startup.VersionLoggerListener.log Server version number: 8.5.75.0
01-Apr-2022 14:11:37.117 INFO [main] org.apache.catalina.startup.VersionLoggerListener.log OS Name:               Linux
01-Apr-2022 14:11:37.117 INFO [main] org.apache.catalina.startup.VersionLoggerListener.log OS Version:            3.10.0-1062.el7.x86_64
01-Apr-2022 14:11:37.117 INFO [main] org.apache.catalina.startup.VersionLoggerListener.log Architecture:          amd64
01-Apr-2022 14:11:37.117 INFO [main] org.apache.catalina.startup.VersionLoggerListener.log Java Home:             /home/olt/jre1.8.0_202
01-Apr-2022 14:11:37.117 INFO [main] org.apache.catalina.startup.VersionLoggerListener.log JVM Version:           1.8.0_202-b08
01-Apr-2022 14:11:37.118 INFO [main] org.apache.catalina.startup.VersionLoggerListener.log JVM Vendor:            Oracle Corporation
01-Apr-2022 14:11:37.118 INFO [main] org.apache.catalina.startup.VersionLoggerListener.log CATALINA_BASE:         /home/olt/apache-tomcat-8.5.75
01-Apr-2022 14:11:37.118 INFO [main] org.apache.catalina.startup.VersionLoggerListener.log CATALINA_HOME:         /home/olt/apache-tomcat-8.5.75
01-Apr-2022 14:11:37.119 INFO [main] org.apache.catalina.startup.VersionLoggerListener.log Command line argument: -Djava.util.logging.config.file=/home/olt/apache-tomcat-8.5.75/conf/logging.properties
01-Apr-2022 14:11:37.119 INFO [main] org.apache.catalina.startup.VersionLoggerListener.log Command line argument: -Djava.util.logging.manager=org.apache.juli.ClassLoaderLogManager
01-Apr-2022 14:11:37.119 INFO [main] org.apache.catalina.startup.VersionLoggerListener.log Command line argument: -Djdk.tls.ephemeralDHKeySize=2048
01-Apr-2022 14:11:37.119 INFO [main] org.apache.catalina.startup.VersionLoggerListener.log Command line argument: -Djava.protocol.handler.pkgs=org.apache.catalina.webresources
01-Apr-2022 14:11:37.119 INFO [main] org.apache.catalina.startup.VersionLoggerListener.log Command line argument: -Dorg.apache.catalina.security.SecurityListener.UMASK=0027
01-Apr-2022 14:11:37.120 INFO [main] org.apache.catalina.startup.VersionLoggerListener.log Command line argument: -Xms512m
01-Apr-2022 14:11:37.120 INFO [main] org.apache.catalina.startup.VersionLoggerListener.log Command line argument: -Xmx1024m
01-Apr-2022 14:11:37.120 INFO [main] org.apache.catalina.startup.VersionLoggerListener.log Command line argument: -XX:MaxPermSize=256m
01-Apr-2022 14:11:37.120 INFO [main] org.apache.catalina.startup.VersionLoggerListener.log Command line argument: -Djava.security.egd=file:/dev/./urandom
01-Apr-2022 14:11:37.120 INFO [main] org.apache.catalina.startup.VersionLoggerListener.log Command line argument: -Dignore.endorsed.dirs=
01-Apr-2022 14:11:37.120 INFO [main] org.apache.catalina.startup.VersionLoggerListener.log Command line argument: -Dcatalina.base=/home/olt/apache-tomcat-8.5.75
01-Apr-2022 14:11:37.121 INFO [main] org.apache.catalina.startup.VersionLoggerListener.log Command line argument: -Dcatalina.home=/home/olt/apache-tomcat-8.5.75
01-Apr-2022 14:11:37.121 INFO [main] org.apache.catalina.startup.VersionLoggerListener.log Command line argument: -Djava.io.tmpdir=/home/olt/apache-tomcat-8.5.75/temp
01-Apr-2022 14:11:37.121 INFO [main] org.apache.catalina.core.AprLifecycleListener.lifecycleEvent The Apache Tomcat Native library which allows using OpenSSL was not found on the java.library.path: [/usr/java/packages/lib/amd64:/usr/lib64:/lib64:/lib:/usr/lib]
01-Apr-2022 14:11:37.870 INFO [main] org.apache.coyote.AbstractProtocol.init Initializing ProtocolHandler ["http-nio-8080"]
01-Apr-2022 14:11:37.909 INFO [main] org.apache.tomcat.util.net.NioSelectorPool.getSharedSelector Using a shared selector for servlet write/read
01-Apr-2022 14:11:37.963 INFO [main] org.apache.catalina.startup.Catalina.load Initialization processed in 2789 ms
01-Apr-2022 14:11:38.059 INFO [main] org.apache.catalina.core.StandardService.startInternal Starting service [Catalina]
01-Apr-2022 14:11:38.059 INFO [main] org.apache.catalina.core.StandardEngine.startInternal Starting Servlet engine: [Apache Tomcat/8.5.75]
01-Apr-2022 14:11:38.131 INFO [localhost-startStop-1] org.apache.catalina.startup.HostConfig.deployWAR Deploying web application archive [/home/olt/apache-tomcat-8.5.75/webapps/EMeteraiStamperServiceDev-1.war]
01-Apr-2022 14:11:40.471 INFO [localhost-startStop-1] org.apache.jasper.servlet.TldScanner.scanJars At least one JAR was scanned for TLDs yet contained no TLDs. Enable debug logging for this logger for a complete list of JARs that were scanned but no TLDs were found in them. Skipping unneeded JARs during scanning can improve startup time and JSP compilation time.
Database connection initialized for Application.
01-Apr-2022 14:11:40.528 INFO [localhost-startStop-1] com.sun.jersey.api.core.PackagesResourceConfig.init Scanning for root resource and provider classes in the packages:
  org.bahanasekuritas.emeterai
01-Apr-2022 14:11:40.559 INFO [localhost-startStop-1] com.sun.jersey.api.core.ScanningResourceConfig.logClasses Root resource classes found:
  class org.bahanasekuritas.emeterai.EMeteraiDownloadService
  class org.bahanasekuritas.emeterai.EMeteraiStamperServiceDev
  class org.bahanasekuritas.emeterai.EMeteraiStamperServiceDev2
  class org.bahanasekuritas.emeterai.EMeteraiTestService
01-Apr-2022 14:11:40.559 INFO [localhost-startStop-1] com.sun.jersey.api.core.ScanningResourceConfig.init No provider classes found.
01-Apr-2022 14:11:40.670 INFO [localhost-startStop-1] com.sun.jersey.server.impl.application.WebApplicationImpl._initiate Initiating Jersey application, version 'Jersey: 1.8 06/24/2011 12:17 PM'
01-Apr-2022 14:11:41.685 INFO [localhost-startStop-1] org.apache.catalina.startup.HostConfig.deployWAR Deployment of web application archive [/home/olt/apache-tomcat-8.5.75/webapps/EMeteraiStamperServiceDev-1.war] has finished in [3,553] ms
01-Apr-2022 14:11:41.686 INFO [localhost-startStop-1] org.apache.catalina.startup.HostConfig.deployDirectory Deploying web application directory [/home/olt/apache-tomcat-8.5.75/webapps/ROOT]
01-Apr-2022 14:11:42.361 INFO [localhost-startStop-1] org.apache.jasper.servlet.TldScanner.scanJars At least one JAR was scanned for TLDs yet contained no TLDs. Enable debug logging for this logger for a complete list of JARs that were scanned but no TLDs were found in them. Skipping unneeded JARs during scanning can improve startup time and JSP compilation time.
01-Apr-2022 14:11:42.364 INFO [localhost-startStop-1] org.apache.catalina.startup.HostConfig.deployDirectory Deployment of web application directory [/home/olt/apache-tomcat-8.5.75/webapps/ROOT] has finished in [678] ms
01-Apr-2022 14:11:42.364 INFO [localhost-startStop-1] org.apache.catalina.startup.HostConfig.deployDirectory Deploying web application directory [/home/olt/apache-tomcat-8.5.75/webapps/docs]
01-Apr-2022 14:11:42.991 INFO [localhost-startStop-1] org.apache.jasper.servlet.TldScanner.scanJars At least one JAR was scanned for TLDs yet contained no TLDs. Enable debug logging for this logger for a complete list of JARs that were scanned but no TLDs were found in them. Skipping unneeded JARs during scanning can improve startup time and JSP compilation time.
01-Apr-2022 14:11:42.994 INFO [localhost-startStop-1] org.apache.catalina.startup.HostConfig.deployDirectory Deployment of web application directory [/home/olt/apache-tomcat-8.5.75/webapps/docs] has finished in [630] ms
01-Apr-2022 14:11:42.995 INFO [localhost-startStop-1] org.apache.catalina.startup.HostConfig.deployDirectory Deploying web application directory [/home/olt/apache-tomcat-8.5.75/webapps/examples]
01-Apr-2022 14:11:44.140 INFO [localhost-startStop-1] org.apache.jasper.servlet.TldScanner.scanJars At least one JAR was scanned for TLDs yet contained no TLDs. Enable debug logging for this logger for a complete list of JARs that were scanned but no TLDs were found in them. Skipping unneeded JARs during scanning can improve startup time and JSP compilation time.
01-Apr-2022 14:11:44.181 INFO [localhost-startStop-1] org.apache.catalina.startup.HostConfig.deployDirectory Deployment of web application directory [/home/olt/apache-tomcat-8.5.75/webapps/examples] has finished in [1,187] ms
01-Apr-2022 14:11:44.181 INFO [localhost-startStop-1] org.apache.catalina.startup.HostConfig.deployDirectory Deploying web application directory [/home/olt/apache-tomcat-8.5.75/webapps/host-manager]
01-Apr-2022 14:11:44.785 INFO [localhost-startStop-1] org.apache.jasper.servlet.TldScanner.scanJars At least one JAR was scanned for TLDs yet contained no TLDs. Enable debug logging for this logger for a complete list of JARs that were scanned but no TLDs were found in them. Skipping unneeded JARs during scanning can improve startup time and JSP compilation time.
01-Apr-2022 14:11:44.789 INFO [localhost-startStop-1] org.apache.catalina.startup.HostConfig.deployDirectory Deployment of web application directory [/home/olt/apache-tomcat-8.5.75/webapps/host-manager] has finished in [608] ms
01-Apr-2022 14:11:44.789 INFO [localhost-startStop-1] org.apache.catalina.startup.HostConfig.deployDirectory Deploying web application directory [/home/olt/apache-tomcat-8.5.75/webapps/manager]
01-Apr-2022 14:11:45.700 INFO [localhost-startStop-1] org.apache.jasper.servlet.TldScanner.scanJars At least one JAR was scanned for TLDs yet contained no TLDs. Enable debug logging for this logger for a complete list of JARs that were scanned but no TLDs were found in them. Skipping unneeded JARs during scanning can improve startup time and JSP compilation time.
01-Apr-2022 14:11:45.708 INFO [localhost-startStop-1] org.apache.catalina.startup.HostConfig.deployDirectory Deployment of web application directory [/home/olt/apache-tomcat-8.5.75/webapps/manager] has finished in [919] ms
01-Apr-2022 14:11:45.717 INFO [main] org.apache.coyote.AbstractProtocol.start Starting ProtocolHandler ["http-nio-8080"]
01-Apr-2022 14:11:45.734 INFO [main] org.apache.catalina.startup.Catalina.start Server startup in 7770 ms
ServletRequest initialized. Remote IP=10.1.3.171
2022-04-01 14:22:35 EMeteraiStamperServiceDev2 entering constructor EMeteraiStamperService...
2022-04-01 14:22:35 EMeteraiStamperServiceDev2 enter uploadFile EMeteraiStamperServiceDev2 method, file: TEST_STAMPING_PDF96.pdf llx: 450 lly: 60 urx: 550 ury: 160
2022-04-01 14:22:35 EMeteraiStamperServiceDev2 EMeteraiStamperServiceDev2 tryLoginToPeruri2
log4j:WARN No appenders could be found for logger (org.apache.http.client.protocol.RequestAddCookies).
log4j:WARN Please initialize the log4j system properly.
log4j:WARN See http://logging.apache.org/log4j/1.2/faq.html#noconfig for more info.
2022-04-01 14:22:36 EMeteraiStamperServiceDev2 loadUnusedSerialNumber return 
2022-04-01 14:22:36 EMeteraiStamperServiceDev2 EMeteraiStamperServiceDev2 tryGenerateSnAndQr
2022-04-01 14:22:37 EMeteraiStamperServiceDev2 namafile: TEST_STAMPING_PDF96.pdf sn: 0PGS6YA7OT0GCZO80000A9
2022-04-01 14:22:37 EMeteraiStamperServiceDev2 execute INSERT INTO serialnumber (sn, qrpath,used,createdatetime,filename) VALUES ('0PGS6YA7OT0GCZO80000A9', '0PGS6YA7OT0GCZO80000A9.png', '0', now(), 'TEST_STAMPING_PDF96.pdf') return 1
2022-04-01 14:22:37 EMeteraiStamperServiceDev2 EMeteraiStamperServiceDev2 doStampDocument
2022-04-01 14:22:37 EMeteraiStamperServiceDev2 jsonparam: {"certificatelevel": "NOT_CERTIFIED","dest": "/sharefolder/SIGNED/final_TEST_STAMPING_PDF96.pdf","docpass": "","jwToken": "eyJhbGciOiJIUzI1NiIsInR5cCI6ImFjY2VzcyJ9.eyJlbWFpbCI6ImJhaC5zZWt1ckB5b3BtYWlsLmNvbSIsImlhdCI6MTY0ODcxMjExMiwiZXhwIjoxNjQ4Nzk4NTEyLCJhdWQiOiJodHRwczovL3lvdXJkb21haW4uY29tIiwiaXNzIjoiZmVhdGhlcnMiLCJzdWIiOiI2MTgwZmI3Mjc0NmJjNzAwMjkxZWQ1ZDMiLCJqdGkiOiJlMTJkZjZkMy04ODZiLTQyYTktYjkxNC0wZjAyOTczOGE2NzcifQ.IgapC31qA1ysPq5GsCI7y0v6lMuEAtAM3LcF6fAYkgE","location": "JAKARTA","profileName": "emeteraicertificateSigner","reason": "Surat Berharga","refToken": "0PGS6YA7OT0GCZO80000A9","spesimenPath": "/sharefolder/STAMP/0PGS6YA7OT0GCZO80000A9.png","src": "/sharefolder/UNSIGNED/TEST_STAMPING_PDF96.pdf","visLLX": 450,"visLLY": 60,"visURX": 550,"visURY": 160,"visSignaturePage": 1}
2022-04-01 14:22:37 EMeteraiStamperServiceDev2 {"status":"False","errorCode":"92","errorMessage":"/sharefolder/UNSIGNED/TEST_STAMPING_PDF96.pdf (No such file or directory)"}
2022-04-01 14:22:37 EMeteraiStamperServiceDev2 status not True when stamping with 0PGS6YA7OT0GCZO80000A9
2022-04-01 14:22:37 EMeteraiStamperServiceDev2 execute UPDATE serialnumber SET updatetime=now(), used='9', filename='TEST_STAMPING_PDF96.pdf', notes='{"status":"False","errorCode":"92","errorMessage":"/sharefolder/UNSIGNED/TEST_STAMPING_PDF96.pdf (No such file or directory)"}' WHERE sn='0PGS6YA7OT0GCZO80000A9'; return 1
2022-04-01 14:22:37 EMeteraiStamperServiceDev2 process TEST_STAMPING_PDF96.pdf takes 2277 msec
ServletRequest destroyed. Remote IP=10.1.3.171
ServletRequest initialized. Remote IP=10.1.3.171
entering constructor EMeteraiDownloadService...
2022-04-01 14:22:37 EMeteraiStamperServiceDev2 Download file TEST_STAMPING_PDF96.pdf
ServletRequest destroyed. Remote IP=10.1.3.171
ServletRequest initialized. Remote IP=10.1.3.171
2022-04-01 14:27:40 EMeteraiStamperServiceDev2 entering constructor EMeteraiStamperService...
2022-04-01 14:27:40 EMeteraiStamperServiceDev2 enter uploadFile EMeteraiStamperServiceDev2 method, file: TEST_STAMPING_PDF96.pdf llx: 450 lly: 60 urx: 550 ury: 160
2022-04-01 14:27:40 EMeteraiStamperServiceDev2 EMeteraiStamperServiceDev2 tryLoginToPeruri2
2022-04-01 14:27:40 EMeteraiStamperServiceDev2 loadUnusedSerialNumber return 
2022-04-01 14:27:40 EMeteraiStamperServiceDev2 EMeteraiStamperServiceDev2 tryGenerateSnAndQr
2022-04-01 14:27:40 EMeteraiStamperServiceDev2 EMeteraiStamperServiceDev2 doStampDocument
2022-04-01 14:27:40 EMeteraiStamperServiceDev2 jsonparam: {"certificatelevel": "NOT_CERTIFIED","dest": "/sharefolder/SIGNED/final_TEST_STAMPING_PDF96.pdf","docpass": "","jwToken": "eyJhbGciOiJIUzI1NiIsInR5cCI6ImFjY2VzcyJ9.eyJlbWFpbCI6ImJhaC5zZWt1ckB5b3BtYWlsLmNvbSIsImlhdCI6MTY0ODcxMjExMiwiZXhwIjoxNjQ4Nzk4NTEyLCJhdWQiOiJodHRwczovL3lvdXJkb21haW4uY29tIiwiaXNzIjoiZmVhdGhlcnMiLCJzdWIiOiI2MTgwZmI3Mjc0NmJjNzAwMjkxZWQ1ZDMiLCJqdGkiOiJlMTJkZjZkMy04ODZiLTQyYTktYjkxNC0wZjAyOTczOGE2NzcifQ.IgapC31qA1ysPq5GsCI7y0v6lMuEAtAM3LcF6fAYkgE","location": "JAKARTA","profileName": "emeteraicertificateSigner","reason": "Surat Berharga","refToken": "0PGS6YA7OT0GCZO80000A9","spesimenPath": "/sharefolder/STAMP/0PGS6YA7OT0GCZO80000A9.png","src": "/sharefolder/UNSIGNED/TEST_STAMPING_PDF96.pdf","visLLX": 450,"visLLY": 60,"visURX": 550,"visURY": 160,"visSignaturePage": 1}
2022-04-01 14:27:40 EMeteraiStamperServiceDev2 {"status":"False","errorCode":"92","errorMessage":"/sharefolder/UNSIGNED/TEST_STAMPING_PDF96.pdf (No such file or directory)"}
2022-04-01 14:27:40 EMeteraiStamperServiceDev2 status not True when stamping with 0PGS6YA7OT0GCZO80000A9
2022-04-01 14:27:40 EMeteraiStamperServiceDev2 execute UPDATE serialnumber SET updatetime=now(), used='9', filename='TEST_STAMPING_PDF96.pdf', notes='{"status":"False","errorCode":"92","errorMessage":"/sharefolder/UNSIGNED/TEST_STAMPING_PDF96.pdf (No such file or directory)"}' WHERE sn='0PGS6YA7OT0GCZO80000A9'; return 1
2022-04-01 14:27:40 EMeteraiStamperServiceDev2 process TEST_STAMPING_PDF96.pdf takes 502 msec
ServletRequest destroyed. Remote IP=10.1.3.171
ServletRequest initialized. Remote IP=10.1.3.171
entering constructor EMeteraiDownloadService...
2022-04-01 14:27:40 EMeteraiStamperServiceDev2 Download file TEST_STAMPING_PDF96.pdf
ServletRequest destroyed. Remote IP=10.1.3.171
