2023-01-14 08:25:01 INFO Starting DXMI logger, SeqID 0
2023-01-14 08:25:01 INFO Start Clearing DXMI.CHNL.ITCHMSG.TRANSACTION redis data
2023-01-14 08:25:01 INFO End Clearing DXMI TRANSACTION redis data
2023-01-14 08:25:01 INFO PROCESS START: Parsing Transaction from TotalView Message started with lastseqid = 0
2023-01-14 08:25:01 INFO Start Clearing DXMI.CHNL.ITCHMSG.TRADE, INDEXUPDATE redis data
2023-01-14 08:25:01 INFO Start Clearing DXMI.CHNL.ITCHMSG.STATUSREF redis data
2023-01-14 08:25:01 INFO End Clearing DXMI.CHNL.ITCHMSG.STATUSREF, INDEXUPDATE redis data
2023-01-14 08:25:01 INFO PROCESS START: Parsing Trade and Index Update from TotalView Message started with lastseqid = 0
2023-01-14 08:25:01 INFO End Clearing DXMI.CHNL.ITCHMSG.STATUSREF redis data
2023-01-14 08:25:01 INFO PROCESS START: Parsing Status and Ref only from TotalView Message started with lastseqid = 0
2023-01-14 08:25:01 INFO Start Clearing ITCH* redis data
2023-01-14 08:25:01 INFO End Clearing ITCH* redis data
2023-01-14 08:25:01 INFO Connecting to ITCH Server 192.168.10.176:40034
2023-01-14 08:25:01 INFO Login with user DXIT01, start sequence 1
2023-01-14 08:25:01 INFO Response login : SessionID : b'1673651681', seqid 1
2023-01-14 10:24:15 INFO Disconnected from server
2023-01-14 10:24:15 INFO Try reconnecting to itch server in (5) seconds ...
2023-01-14 10:24:20 INFO Connecting to ITCH Server 192.168.10.176:40034
2023-01-14 10:24:20 INFO Login with user DXIT01, start sequence 279040
2023-01-14 10:24:20 INFO Response login : SessionID : b'1673651681', seqid 279040
2023-01-14 10:30:01 ERROR Deletion order 202301140000057908 not found
2023-01-14 12:35:21 INFO Disconnected from server
2023-01-14 12:35:21 INFO Try reconnecting to itch server in (5) seconds ...
2023-01-14 12:35:26 INFO Connecting to ITCH Server 192.168.10.176:40034
2023-01-14 12:35:26 INFO Login with user DXIT01, start sequence 5588635
2023-01-14 14:15:01 INFO Starting DXMI logger, SeqID 0
2023-01-14 14:15:01 INFO Start Clearing DXMI.CHNL.ITCHMSG.TRANSACTION redis data
2023-01-14 14:15:01 INFO End Clearing DXMI TRANSACTION redis data
2023-01-14 14:15:01 INFO PROCESS START: Parsing Transaction from TotalView Message started with lastseqid = 0
2023-01-14 14:15:01 INFO Start Clearing DXMI.CHNL.ITCHMSG.STATUSREF redis data
2023-01-14 14:15:01 INFO Start Clearing DXMI.CHNL.ITCHMSG.TRADE, INDEXUPDATE redis data
2023-01-14 14:15:01 INFO End Clearing DXMI.CHNL.ITCHMSG.STATUSREF redis data
2023-01-14 14:15:01 INFO PROCESS START: Parsing Status and Ref only from TotalView Message started with lastseqid = 0
2023-01-14 14:15:01 INFO End Clearing DXMI.CHNL.ITCHMSG.STATUSREF, INDEXUPDATE redis data
2023-01-14 14:15:01 INFO PROCESS START: Parsing Trade and Index Update from TotalView Message started with lastseqid = 0
2023-01-14 14:15:01 INFO Start Clearing ITCH* redis data
2023-01-14 14:15:01 INFO End Clearing ITCH* redis data
2023-01-14 14:15:01 INFO Connecting to ITCH Server 192.168.10.176:40034
2023-01-14 14:15:01 INFO Login with user DXIT01, start sequence 1
2023-01-14 14:30:01 INFO Starting DXMI logger, SeqID 0
2023-01-14 14:30:01 INFO Start Clearing DXMI.CHNL.ITCHMSG.TRANSACTION redis data
2023-01-14 14:30:01 INFO End Clearing DXMI TRANSACTION redis data
2023-01-14 14:30:01 INFO PROCESS START: Parsing Transaction from TotalView Message started with lastseqid = 0
2023-01-14 14:30:01 INFO Start Clearing DXMI.CHNL.ITCHMSG.STATUSREF redis data
2023-01-14 14:30:01 INFO Start Clearing DXMI.CHNL.ITCHMSG.TRADE, INDEXUPDATE redis data
2023-01-14 14:30:01 INFO End Clearing DXMI.CHNL.ITCHMSG.STATUSREF redis data
2023-01-14 14:30:01 INFO PROCESS START: Parsing Status and Ref only from TotalView Message started with lastseqid = 0
2023-01-14 14:30:01 INFO Start Clearing ITCH* redis data
2023-01-14 14:30:01 INFO End Clearing ITCH* redis data
2023-01-14 14:30:01 INFO Connecting to ITCH Server 192.168.10.176:40034
2023-01-14 14:30:01 INFO Login with user DXIT01, start sequence 1
2023-01-14 14:30:01 INFO End Clearing DXMI.CHNL.ITCHMSG.STATUSREF, INDEXUPDATE redis data
2023-01-14 14:30:01 INFO PROCESS START: Parsing Trade and Index Update from TotalView Message started with lastseqid = 0
2023-01-14 14:36:05 INFO Start Clearing ITCH* redis data
2023-01-14 14:36:05 INFO End Clearing ITCH* redis data
2023-01-14 14:36:05 INFO Connecting to ITCH Server 192.168.10.176:40034
2023-01-14 14:36:05 INFO Login with user DXIT01, start sequence 1
2023-01-14 14:36:45 INFO Start Clearing ITCH* redis data
2023-01-14 14:36:45 INFO End Clearing ITCH* redis data
2023-01-14 14:36:45 INFO Connecting to ITCH Server 192.168.10.176:40034
2023-01-14 14:36:45 INFO Login with user DXIT01, start sequence 1
2023-01-14 14:36:45 INFO Response login : SessionID : b'1673679108', seqid 1
